GUI_pyQt/FPGA Testing/Power Levels/GW_instek_scope_test_data/GW_instek_scope_test_1.CSV

Memory Length,4000,
Trigger Level,1.260E-01,
Source,CH1,
Probe,1X,
Vertical Units,V,
Vertical Scale,1.000E-01,
Vertical Position,0.000E+00,
Horizontal Units,s,
Horizontal Scale,1.000E-06,
Horizontal Position,0.000E+00,
Horizontal Mode,Main,
Sampling Period,5.000E-09,
Firmware,V1.11,
Time, ,
Mode,Fast,
Waveform Data,
36,
37,
36,
37,
38,
38,
40,
40,
41,
43,
43,
43,
44,
46,
45,
46,
46,
47,
47,
47,
48,
48,
48,
48,
48,
48,
48,
48,
48,
48,
47,
47,
47,
47,
46,
46,
45,
45,
44,
44,
42,
42,
41,
40,
39,
38,
37,
36,
35,
34,
34,
32,
31,
30,
29,
27,
26,
25,
24,
22,
21,
18,
17,
17,
15,
14,
12,
11,
9,
7,
6,
4,
3,
1,
-1,
-1,
-3,
-5,
-6,
-8,
-10,
-12,
-13,
-14,
-15,
-17,
-19,
-20,
-22,
-22,
-24,
-26,
-27,
-28,
-30,
-30,
-32,
-34,
-35,
-36,
-38,
-38,
-39,
-40,
-41,
-41,
-43,
-44,
-45,
-45,
-46,
-46,
-47,
-48,
-49,
-48,
-50,
-49,
-50,
-50,
-50,
-50,
-51,
-51,
-51,
-50,
-51,
-51,
-51,
-50,
-51,
-50,
-49,
-49,
-49,
-48,
-48,
-46,
-47,
-46,
-46,
-44,
-43,
-42,
-43,
-41,
-40,
-38,
-38,
-36,
-37,
-36,
-34,
-32,
-31,
-30,
-29,
-28,
-26,
-24,
-23,
-22,
-21,
-18,
-19,
-16,
-15,
-13,
-12,
-10,
-8,
-6,
-6,
-4,
-3,
-1,
0,
2,
4,
5,
7,
9,
10,
12,
13,
14,
16,
18,
18,
20,
21,
22,
24,
26,
27,
28,
29,
31,
31,
33,
34,
36,
36,
38,
38,
40,
40,
42,
41,
42,
42,
44,
44,
44,
45,
46,
46,
46,
46,
48,
47,
47,
48,
48,
47,
48,
48,
48,
48,
47,
49,
47,
46,
46,
46,
46,
45,
44,
44,
43,
42,
42,
41,
40,
39,
39,
38,
36,
35,
34,
33,
32,
31,
30,
29,
28,
26,
24,
24,
23,
21,
18,
17,
16,
15,
14,
12,
10,
9,
7,
6,
4,
2,
1,
0,
-1,
-3,
-5,
-6,
-8,
-10,
-11,
-12,
-14,
-15,
-18,
-19,
-19,
-22,
-22,
-25,
-26,
-27,
-28,
-30,
-31,
-32,
-33,
-35,
-36,
-38,
-38,
-39,
-40,
-41,
-41,
-43,
-43,
-45,
-45,
-46,
-46,
-47,
-47,
-48,
-48,
-49,
-49,
-50,
-50,
-51,
-50,
-51,
-51,
-51,
-51,
-51,
-50,
-51,
-50,
-51,
-50,
-50,
-49,
-49,
-49,
-48,
-47,
-47,
-46,
-46,
-44,
-44,
-43,
-42,
-41,
-40,
-39,
-38,
-37,
-36,
-35,
-34,
-32,
-31,
-30,
-29,
-28,
-26,
-24,
-23,
-22,
-21,
-19,
-18,
-16,
-15,
-13,
-12,
-10,
-9,
-6,
-6,
-4,
-3,
-1,
1,
2,
4,
5,
7,
10,
10,
12,
13,
15,
16,
18,
18,
20,
21,
22,
24,
25,
27,
28,
29,
30,
31,
33,
34,
35,
36,
36,
37,
39,
41,
41,
42,
42,
42,
43,
44,
44,
45,
46,
46,
47,
46,
47,
48,
48,
47,
48,
48,
48,
48,
48,
47,
48,
48,
46,
47,
47,
46,
46,
46,
43,
44,
43,
42,
42,
41,
40,
39,
38,
38,
36,
35,
34,
34,
32,
31,
30,
29,
27,
26,
24,
24,
22,
21,
19,
18,
17,
15,
14,
12,
11,
9,
8,
6,
4,
2,
0,
0,
-2,
-3,
-5,
-7,
-9,
-10,
-12,
-12,
-14,
-15,
-18,
-19,
-20,
-22,
-22,
-24,
-26,
-27,
-28,
-30,
-30,
-32,
-33,
-35,
-36,
-37,
-38,
-39,
-40,
-41,
-41,
-43,
-43,
-45,
-44,
-46,
-46,
-47,
-48,
-49,
-48,
-49,
-49,
-50,
-50,
-51,
-50,
-51,
-52,
-51,
-50,
-51,
-50,
-51,
-50,
-50,
-49,
-50,
-49,
-49,
-48,
-47,
-46,
-47,
-45,
-46,
-44,
-43,
-42,
-43,
-41,
-40,
-39,
-38,
-37,
-35,
-35,
-34,
-32,
-31,
-30,
-29,
-28,
-26,
-24,
-23,
-22,
-20,
-18,
-18,
-16,
-14,
-13,
-11,
-10,
-9,
-7,
-6,
-4,
-2,
-1,
1,
2,
4,
5,
7,
9,
10,
12,
13,
15,
16,
18,
18,
20,
22,
23,
25,
26,
27,
28,
29,
31,
32,
32,
34,
35,
36,
37,
37,
39,
40,
40,
41,
42,
42,
44,
44,
45,
45,
46,
46,
47,
47,
48,
47,
48,
48,
48,
48,
48,
49,
48,
48,
48,
47,
47,
46,
46,
46,
46,
45,
44,
43,
43,
42,
42,
41,
40,
39,
38,
37,
36,
35,
35,
34,
32,
31,
30,
29,
28,
26,
24,
24,
22,
21,
19,
18,
17,
15,
14,
12,
11,
9,
7,
6,
4,
2,
1,
-1,
-2,
-3,
-5,
-6,
-8,
-10,
-12,
-12,
-14,
-16,
-16,
-19,
-20,
-22,
-22,
-24,
-25,
-27,
-28,
-30,
-31,
-33,
-33,
-34,
-35,
-37,
-38,
-39,
-40,
-41,
-42,
-43,
-42,
-45,
-45,
-46,
-46,
-47,
-47,
-49,
-48,
-49,
-50,
-50,
-50,
-50,
-50,
-51,
-51,
-51,
-50,
-51,
-50,
-51,
-50,
-51,
-50,
-50,
-49,
-49,
-48,
-48,
-46,
-47,
-46,
-45,
-44,
-43,
-42,
-42,
-41,
-40,
-39,
-39,
-37,
-35,
-35,
-35,
-32,
-31,
-30,
-29,
-28,
-27,
-25,
-24,
-22,
-21,
-18,
-18,
-15,
-15,
-13,
-12,
-10,
-9,
-7,
-6,
-3,
-2,
0,
0,
3,
4,
5,
6,
8,
10,
11,
13,
14,
16,
18,
19,
20,
22,
23,
24,
26,
27,
28,
29,
31,
32,
32,
34,
35,
37,
37,
37,
39,
41,
41,
41,
42,
42,
44,
44,
45,
45,
46,
46,
47,
47,
48,
47,
47,
48,
48,
47,
48,
48,
48,
47,
48,
48,
46,
46,
46,
46,
45,
45,
44,
44,
43,
42,
42,
41,
40,
40,
39,
37,
36,
35,
34,
33,
32,
30,
30,
29,
27,
26,
25,
25,
22,
21,
19,
18,
17,
15,
14,
12,
10,
9,
8,
6,
4,
2,
1,
-1,
-2,
-3,
-5,
-7,
-8,
-10,
-11,
-12,
-14,
-16,
-17,
-19,
-19,
-22,
-22,
-25,
-25,
-27,
-28,
-30,
-31,
-33,
-33,
-35,
-36,
-37,
-38,
-39,
-40,
-41,
-42,
-42,
-43,
-44,
-45,
-46,
-46,
-48,
-47,
-48,
-47,
-49,
-49,
-50,
-50,
-50,
-50,
-51,
-50,
-51,
-52,
-51,
-50,
-51,
-50,
-51,
-50,
-50,
-50,
-49,
-48,
-49,
-47,
-47,
-45,
-46,
-44,
-43,
-43,
-42,
-40,
-40,
-39,
-39,
-37,
-36,
-35,
-34,
-32,
-31,
-30,
-30,
-28,
-27,
-24,
-23,
-22,
-20,
-19,
-18,
-16,
-15,
-14,
-11,
-10,
-9,
-6,
-6,
-4,
-3,
0,
0,
2,
4,
5,
7,
10,
9,
11,
13,
15,
15,
18,
18,
20,
21,
23,
23,
26,
27,
28,
29,
31,
32,
33,
33,
35,
37,
38,
37,
39,
40,
40,
41,
42,
42,
44,
44,
46,
45,
46,
46,
46,
47,
47,
48,
48,
48,
48,
49,
48,
48,
48,
47,
48,
47,
47,
46,
47,
45,
45,
45,
44,
44,
43,
42,
42,
41,
41,
39,
38,
37,
36,
35,
34,
33,
32,
31,
30,
29,
28,
26,
24,
24,
22,
21,
18,
17,
17,
15,
14,
12,
11,
9,
7,
6,
4,
2,
1,
-1,
-1,
-3,
-5,
-7,
-8,
-11,
-12,
-12,
-14,
-16,
-17,
-19,
-20,
-22,
-22,
-24,
-26,
-27,
-28,
-30,
-31,
-32,
-33,
-34,
-35,
-37,
-38,
-39,
-40,
-41,
-41,
-43,
-44,
-45,
-44,
-46,
-45,
-47,
-47,
-48,
-48,
-50,
-50,
-50,
-50,
-50,
-50,
-51,
-50,
-51,
-51,
-51,
-50,
-51,
-50,
-51,
-50,
-49,
-50,
-49,
-48,
-47,
-46,
-47,
-46,
-46,
-44,
-44,
-42,
-42,
-40,
-40,
-39,
-37,
-37,
-36,
-35,
-34,
-32,
-31,
-30,
-30,
-28,
-27,
-24,
-23,
-22,
-20,
-18,
-18,
-16,
-15,
-13,
-12,
-10,
-9,
-7,
-6,
-4,
-2,
0,
0,
3,
3,
6,
7,
10,
10,
12,
13,
15,
15,
17,
18,
20,
22,
23,
25,
26,
26,
28,
30,
31,
31,
32,
34,
35,
35,
37,
37,
39,
39,
40,
41,
42,
42,
43,
44,
45,
46,
46,
46,
47,
47,
47,
48,
48,
48,
48,
47,
48,
49,
48,
47,
48,
48,
47,
46,
46,
46,
45,
45,
44,
43,
43,
42,
41,
41,
40,
39,
38,
37,
36,
36,
35,
34,
32,
30,
30,
29,
27,
26,
25,
23,
21,
21,
19,
18,
16,
14,
13,
12,
10,
9,
8,
5,
4,
2,
1,
0,
-2,
-3,
-4,
-6,
-9,
-10,
-11,
-13,
-14,
-15,
-17,
-18,
-19,
-22,
-22,
-24,
-26,
-27,
-28,
-30,
-30,
-32,
-32,
-34,
-36,
-38,
-38,
-39,
-39,
-41,
-42,
-43,
-44,
-45,
-44,
-46,
-46,
-47,
-47,
-48,
-48,
-49,
-49,
-50,
-49,
-51,
-51,
-51,
-50,
-51,
-51,
-51,
-50,
-51,
-50,
-50,
-49,
-50,
-48,
-48,
-48,
-48,
-47,
-47,
-46,
-45,
-44,
-44,
-43,
-42,
-40,
-40,
-39,
-38,
-37,
-35,
-34,
-34,
-32,
-31,
-30,
-29,
-27,
-27,
-24,
-24,
-22,
-21,
-18,
-18,
-16,
-15,
-13,
-11,
-10,
-8,
-7,
-6,
-4,
-2,
-2,
0,
2,
4,
6,
7,
9,
10,
12,
13,
14,
15,
18,
18,
19,
22,
23,
25,
26,
27,
28,
29,
30,
31,
33,
34,
35,
37,
37,
38,
40,
40,
40,
41,
42,
42,
44,
44,
45,
45,
46,
46,
47,
47,
47,
48,
48,
49,
48,
48,
49,
49,
47,
47,
48,
47,
47,
46,
47,
46,
46,
45,
44,
43,
43,
42,
42,
41,
40,
39,
39,
37,
37,
35,
35,
33,
32,
31,
30,
29,
27,
25,
25,
24,
22,
21,
19,
18,
17,
15,
13,
12,
10,
9,
6,
6,
5,
2,
2,
-1,
-2,
-3,
-6,
-6,
-8,
-9,
-11,
-12,
-14,
-16,
-16,
-19,
-20,
-22,
-22,
-24,
-26,
-27,
-28,
-30,
-32,
-33,
-33,
-35,
-36,
-38,
-38,
-39,
-40,
-41,
-42,
-43,
-43,
-44,
-44,
-46,
-46,
-47,
-48,
-48,
-48,
-49,
-49,
-50,
-50,
-51,
-50,
-51,
-50,
-51,
-51,
-51,
-50,
-51,
-50,
-51,
-50,
-50,
-49,
-49,
-48,
-48,
-47,
-47,
-46,
-46,
-44,
-44,
-42,
-43,
-41,
-40,
-39,
-39,
-37,
-36,
-34,
-34,
-32,
-31,
-30,
-29,
-27,
-27,
-24,
-23,
-22,
-21,
-19,
-19,
-16,
-15,
-13,
-11,
-10,
-9,
-7,
-6,
-4,
-3,
0,
1,
2,
4,
6,
7,
10,
9,
12,
13,
15,
15,
18,
19,
20,
22,
23,
24,
26,
27,
28,
29,
31,
32,
33,
34,
35,
36,
37,
37,
39,
40,
41,
42,
42,
43,
44,
45,
45,
45,
46,
46,
47,
47,
48,
47,
48,
49,
48,
48,
48,
48,
48,
47,
47,
47,
47,
46,
47,
46,
46,
45,
44,
44,
44,
42,
42,
41,
40,
39,
39,
37,
36,
34,
34,
33,
32,
31,
30,
29,
28,
26,
24,
25,
22,
21,
18,
17,
17,
15,
14,
12,
10,
9,
7,
6,
4,
3,
2,
-1,
-2,
-3,
-5,
-6,
-8,
-10,
-12,
-12,
-14,
-16,
-17,
-19,
-20,
-22,
-22,
-24,
-26,
-27,
-28,
-30,
-30,
-33,
-33,
-35,
-36,
-38,
-38,
-38,
-40,
-41,
-42,
-43,
-42,
-45,
-44,
-46,
-46,
-47,
-48,
-49,
-49,
-50,
-49,
-50,
-50,
-51,
-50,
-51,
-51,
-51,
-50,
-51,
-50,
-51,
-50,
-51,
-50,
-49,
-48,
-49,
-48,
-48,
-47,
-47,
-45,
-46,
-44,
-43,
-42,
-42,
-41,
-40,
-38,
-39,
-37,
-37,
-35,
-34,
-32,
-31,
-30,
-29,
-28,
-26,
-24,
-23,
-21,
-20,
-19,
-18,
-16,
-15,
-12,
-12,
-10,
-9,
-6,
-6,
-4,
-2,
0,
1,
3,
4,
6,
7,
9,
10,
12,
13,
15,
15,
18,
19,
20,
23,
23,
25,
26,
27,
28,
29,
31,
31,
33,
34,
36,
36,
37,
37,
40,
39,
40,
41,
43,
42,
44,
45,
45,
46,
46,
46,
47,
46,
48,
47,
48,
48,
48,
47,
48,
49,
48,
47,
48,
48,
47,
47,
46,
46,
46,
45,
44,
43,
43,
42,
42,
41,
40,
39,
38,
37,
37,
36,
35,
33,
32,
31,
29,
29,
27,
26,
24,
23,
22,
21,
18,
18,
17,
15,
14,
13,
11,
9,
8,
5,
4,
2,
2,
-1,
-2,
-3,
-5,
-6,
-8,
-10,
-11,
-13,
-14,
-16,
-17,
-19,
-19,
-22,
-22,
-24,
-25,
-27,
-28,
-30,
-31,
-33,
-33,
-35,
-35,
-37,
-38,
-39,
-40,
-41,
-42,
-43,
-43,
-45,
-44,
-46,
-46,
-47,
-48,
-48,
-48,
-49,
-49,
-50,
-50,
-50,
-50,
-51,
-50,
-51,
-51,
-51,
-50,
-51,
-50,
-50,
-50,
-50,
-48,
-49,
-48,
-48,
-46,
-47,
-45,
-46,
-44,
-43,
-42,
-42,
-40,
-40,
-39,
-38,
-36,
-36,
-35,
-35,
-32,
-31,
-30,
-29,
-28,
-27,
-25,
-23,
-22,
-21,
-18,
-18,
-16,
-15,
-13,
-11,
-10,
-9,
-6,
-6,
-4,
-2,
0,
1,
3,
3,
6,
7,
9,
10,
12,
13,
14,
15,
18,
18,
20,
23,
23,
24,
26,
26,
28,
29,
31,
32,
33,
34,
35,
36,
37,
38,
39,
41,
40,
41,
42,
42,
44,
44,
45,
45,
45,
46,
47,
47,
48,
47,
48,
48,
48,
48,
48,
48,
48,
47,
48,
47,
48,
46,
46,
46,
46,
45,
44,
44,
43,
42,
43,
41,
40,
40,
38,
37,
36,
35,
35,
33,
32,
30,
30,
29,
26,
26,
25,
24,
22,
21,
19,
18,
17,
15,
14,
13,
11,
8,
7,
6,
4,
2,
1,
0,
-1,
-3,
-5,
-6,
-8,
-10,
-11,
-12,
-14,
-15,
-18,
-19,
-20,
-22,
-22,
-24,
-26,
-27,
-28,
-30,
-31,
-32,
-33,
-34,
-36,
-38,
-38,
-39,
-40,
-41,
-41,
-43,
-44,
-44,
-45,
-46,
-46,
-47,
-47,
-48,
-48,
-49,
-49,
-49,
-50,
-51,
-50,
-50,
-50,
-51,
-51,
-51,
-50,
-51,
-50,
-50,
-49,
-50,
-49,
-48,
-48,
-48,
-47,
-46,
-46,
-45,
-44,
-44,
-42,
-42,
-41,
-40,
-39,
-38,
-37,
-35,
-34,
-34,
-32,
-31,
-30,
-30,
-27,
-27,
-24,
-23,
-21,
-20,
-18,
-18,
-16,
-15,
-13,
-11,
-10,
-8,
-6,
-5,
-4,
-2,
-1,
1,
2,
4,
6,
7,
9,
10,
12,
13,
15,
16,
18,
18,
20,
22,
23,
25,
26,
27,
28,
30,
31,
32,
33,
34,
35,
36,
37,
37,
39,
40,
42,
41,
42,
42,
44,
44,
45,
45,
46,
46,
46,
47,
47,
47,
48,
49,
48,
47,
48,
48,
48,
48,
48,
47,
47,
47,
46,
46,
46,
45,
45,
44,
43,
42,
42,
41,
41,
39,
38,
37,
36,
35,
34,
33,
32,
31,
30,
29,
28,
26,
24,
24,
22,
21,
19,
18,
17,
15,
14,
12,
11,
9,
7,
5,
4,
2,
2,
0,
-2,
-3,
-5,
-7,
-8,
-10,
-12,
-12,
-14,
-16,
-17,
-19,
-20,
-22,
-23,
-24,
-26,
-27,
-28,
-30,
-31,
-33,
-34,
-34,
-36,
-38,
-37,
-39,
-40,
-40,
-42,
-43,
-43,
-44,
-45,
-46,
-46,
-47,
-47,
-48,
-48,
-50,
-49,
-49,
-50,
-50,
-50,
-50,
-50,
-51,
-51,
-51,
-50,
-51,
-50,
-50,
-49,
-50,
-48,
-49,
-48,
-48,
-46,
-47,
-46,
-45,
-44,
-44,
-42,
-42,
-41,
-41,
-39,
-38,
-37,
-35,
-34,
-34,
-33,
-31,
-30,
-28,
-27,
-26,
-24,
-23,
-22,
-21,
-19,
-18,
-16,
-15,
-13,
-12,
-10,
-9,
-6,
-6,
-4,
-2,
-1,
1,
3,
4,
5,
7,
8,
10,
12,
13,
14,
15,
18,
18,
20,
22,
23,
25,
26,
27,
28,
29,
31,
32,
33,
34,
35,
36,
38,
38,
39,
41,
41,
41,
43,
42,
44,
44,
44,
45,
46,
46,
47,
47,
48,
48,
48,
49,
48,
48,
48,
49,
48,
48,
47,
47,
47,
46,
46,
46,
46,
45,
44,
44,
43,
42,
42,
41,
40,
39,
38,
38,
37,
35,
34,
33,
33,
31,
30,
29,
28,
25,
25,
25,
22,
21,
19,
18,
17,
15,
14,
13,
10,
9,
7,
6,
5,
2,
2,
-1,
-2,
-3,
-5,
-6,
-9,
-11,
-11,
-12,
-14,
-16,
-16,
-19,
-20,
-22,
-22,
-24,
-26,
-27,
-28,
-30,
-30,
-32,
-33,
-35,
-36,
-37,
-38,
-39,
-40,
-40,
-42,
-43,
-44,
-45,
-45,
-46,
-46,
-47,
-47,
-49,
-48,
-49,
-49,
-50,
-50,
-50,
-50,
-51,
-50,
-51,
-50,
-51,
-50,
-51,
-50,
-50,
-50,
-50,
-49,
-49,
-48,
-47,
-46,
-47,
-46,
-46,
-44,
-43,
-43,
-43,
-40,
-40,
-39,
-38,
-37,
-35,
-35,
-33,
-32,
-31,
-30,
-28,
-28,
-26,
-25,
-23,
-22,
-20,
-18,
-18,
-16,
-14,
-14,
-11,
-10,
-9,
-6,
-6,
-4,
-2,
-1,
1,
3,
4,
6,
7,
9,
10,
12,
13,
15,
16,
18,
18,
20,
22,
23,
24,
26,
27,
28,
29,
31,
32,
33,
34,
35,
36,
37,
37,
39,
39,
40,
41,
42,
43,
44,
45,
45,
46,
46,
46,
47,
47,
47,
47,
48,
49,
49,
48,
48,
49,
48,
47,
48,
48,
47,
47,
46,
46,
45,
45,
44,
44,
43,
42,
42,
41,
40,
40,
39,
37,
36,
35,
34,
33,
32,
31,
30,
29,
27,
26,
24,
24,
22,
20,
19,
18,
17,
15,
14,
11,
11,
9,
7,
6,
4,
2,
0,
0,
-1,
-3,
-5,
-6,
-9,
-10,
-11,
-12,
-14,
-15,
-18,
-19,
-20,
-22,
-22,
-24,
-25,
-27,
-28,
-30,
-30,
-32,
-33,
-34,
-35,
-37,
-38,
-39,
-40,
-41,
-41,
-42,
-44,
-45,
-44,
-46,
-45,
-47,
-47,
-49,
-48,
-49,
-49,
-50,
-50,
-50,
-50,
-51,
-50,
-51,
-50,
-51,
-50,
-51,
-50,
-50,
-50,
-50,
-49,
-49,
-48,
-47,
-46,
-46,
-46,
-46,
-44,
-43,
-42,
-43,
-41,
-40,
-38,
-38,
-37,
-35,
-35,
-34,
-32,
-31,
-30,
-30,
-28,
-26,
-25,
-23,
-22,
-21,
-19,
-18,
-16,
-15,
-13,
-11,
-10,
-8,
-7,
-6,
-4,
-2,
-1,
1,
3,
4,
6,
8,
8,
9,
12,
13,
15,
16,
18,
18,
20,
22,
23,
25,
26,
27,
28,
29,
31,
32,
34,
34,
35,
36,
37,
38,
39,
40,
42,
41,
42,
42,
43,
45,
44,
46,
46,
46,
47,
47,
47,
47,
48,
47,
48,
48,
48,
48,
48,
48,
48,
48,
47,
46,
46,
45,
45,
45,
44,
44,
43,
42,
42,
41,
40,
39,
39,
37,
36,
35,
35,
34,
32,
31,
30,
29,
27,
26,
24,
24,
22,
21,
19,
18,
17,
15,
14,
12,
10,
9,
7,
6,
4,
2,
1,
-1,
-1,
-3,
-6,
-6,
-8,
-11,
-12,
-12,
-14,
-15,
-17,
-19,
-19,
-22,
-22,
-24,
-25,
-27,
-28,
-30,
-30,
-32,
-33,
-35,
-36,
-37,
-38,
-39,
-40,
-40,
-42,
-43,
-43,
-45,
-45,
-46,
-46,
-47,
-47,
-48,
-49,
-49,
-50,
-50,
-50,
-51,
-50,
-51,
-50,
-51,
-50,
-51,
-50,
-51,
-50,
-51,
-50,
-50,
-49,
-49,
-48,
-47,
-47,
-47,
-45,
-46,
-44,
-43,
-43,
-42,
-41,
-40,
-39,
-39,
-37,
-36,
-34,
-34,
-32,
-31,
-30,
-29,
-28,
-26,
-24,
-24,
-22,
-20,
-18,
-18,
-16,
-15,
-13,
-11,
-9,
-9,
-6,
-6,
-4,
-2,
-1,
1,
3,
4,
6,
7,
10,
9,
11,
13,
15,
16,
18,
18,
20,
22,
23,
24,
26,
26,
28,
29,
31,
31,
33,
34,
36,
36,
38,
38,
39,
40,
41,
41,
43,
42,
43,
44,
45,
45,
46,
46,
47,
47,
47,
47,
48,
48,
48,
47,
48,
49,
48,
48,
48,
48,
47,
46,
46,
46,
46,
45,
44,
44,
43,
42,
42,
41,
39,
39,
38,
38,
37,
34,
34,
33,
32,
31,
29,
28,
28,
26,
24,
25,
22,
20,
18,
18,
17,
15,
14,
13,
11,
9,
8,
6,
4,
3,
1,
-1,
-1,
-3,
-5,
-7,
-8,
-11,
-11,
-13,
-15,
-16,
-18,
-19,
-20,
-22,
-22,
-25,
-26,
-27,
-28,
-30,
-31,
-32,
-33,
-35,
-36,
-38,
-37,
-39,
-40,
-41,
-42,
-43,
-43,
-45,
-44,
-46,
-46,
-47,
-47,
-48,
-48,
-49,
-49,
-50,
-49,
-50,
-50,
-51,
-50,
-51,
-51,
-51,
-50,
-51,
-50,
-51,
-49,
-50,
-49,
-49,
-48,
-48,
-47,
-47,
-46,
-46,
-44,
-43,
-42,
-42,
-41,
-40,
-39,
-39,
-37,
-36,
-35,
-34,
-32,
-31,
-30,
-29,
-28,
-27,
-24,
-23,
-21,
-21,
-18,
-18,
-16,
-15,
-13,
-11,
-10,
-9,
-6,
-6,
-4,
-2,
0,
0,
3,
4,
6,
7,
9,
10,
12,
13,
14,
16,
18,
18,
20,
22,
23,
24,
25,
27,
28,
29,
31,
32,
34,
34,
35,
37,
37,
38,
39,
40,
41,
41,
42,
43,
43,
45,
44,
45,
46,
46,
47,
47,
48,
48,
48,
49,
48,
48,
48,
48,
48,
47,
48,
47,
48,
47,
47,
46,
46,
45,
44,
44,
44,
42,
42,
41,
40,
40,
39,
37,
36,
34,
34,
33,
32,
30,
30,
29,
27,
26,
24,
24,
22,
21,
19,
18,
16,
14,
13,
13,
11,
9,
7,
5,
4,
3,
1,
0,
-2,
-3,
-5,
-7,
-9,
-11,
-12,
-13,
-14,
-16,
-18,
-19,
-20,
-22,
-22,
-25,
-26,
-27,
-28,
-30,
-31,
-32,
-33,
-34,
-36,
-37,
-38,
-39,
-40,
-41,
-41,
-43,
-44,
-45,
-45,
-46,
-45,
-47,
-48,
-48,
-48,
-50,
-49,
-50,
-49,
-51,
-50,
-51,
-50,
-51,
-51,
-50,
-50,
-51,
-50,
-51,
-49,
-49,
-48,
-49,
-48,
-48,
-46,
-47,
-45,
-46,
-44,
-43,
-42,
-43,
-41,
-40,
-39,
-39,
-36,
-35,
-34,
-34,
-32,
-31,
-30,
-29,
-27,
-26,
-24,
-23,
-21,
-21,
-18,
-18,
-16,
-15,
-13,
-11,
-10,
-8,
-7,
-6,
-4,
-2,
0,
1,
3,
3,
6,
7,
8,
10,
12,
13,
15,
15,
18,
18,
20,
22,
23,
25,
25,
26,
29,
29,
31,
32,
32,
34,
35,
37,
37,
37,
38,
40,
40,
42,
42,
42,
44,
45,
44,
45,
46,
46,
47,
47,
48,
47,
48,
48,
48,
48,
48,
49,
48,
47,
48,
47,
48,
46,
46,
46,
46,
45,
45,
44,
43,
42,
43,
41,
40,
39,
38,
38,
36,
34,
34,
33,
32,
30,
30,
29,
27,
26,
24,
24,
22,
21,
19,
17,
16,
15,
14,
12,
11,
9,
7,
6,
4,
2,
2,
-1,
-2,
-4,
-5,
-6,
-8,
-10,
-11,
-12,
-14,
-16,
-16,
-19,
-20,
-22,
-22,
-25,
-25,
-27,
-28,
-30,
-31,
-32,
-33,
-35,
-36,
-37,
-37,
-38,
-40,
-41,
-41,
-43,
-44,
-45,
-45,
-46,
-46,
-47,
-47,
-49,
-48,
-50,
-50,
-50,
-50,
-50,
-50,
-51,
-50,
-51,
-50,
-51,
-51,
-51,
-50,
-51,
-49,
-50,
-49,
-49,
-48,
-48,
-47,
-47,
-46,
-45,
-44,
-44,
-42,
-42,
-41,
-40,
-39,
-38,
-37,
-36,
-34,
-34,
-32,
-31,
-30,
-29,
-27,
-26,
-24,
-24,
-22,
-21,
-18,
-18,
-16,
-15,
-13,
-12,
-10,
-8,
-6,
-6,
-4,
-3,
-1,
1,
2,
4,
5,
7,
9,
10,
12,
13,
15,
16,
18,
18,
20,
22,
23,
25,
25,
27,
28,
29,
31,
32,
33,
34,
35,
36,
38,
38,
39,
40,
41,
41,
42,
42,
44,
43,
45,
46,
46,
46,
47,
47,
47,
47,
48,
49,
48,
47,
48,
48,
48,
47,
47,
47,
46,
46,
46,
47,
46,
45,
44,
43,
43,
42,
42,
41,
40,
39,
38,
37,
36,
34,
34,
33,
32,
31,
29,
29,
27,
26,
25,
24,
22,
21,
19,
18,
17,
15,
14,
12,
10,
9,
7,
6,
4,
2,
1,
0,
-2,
-3,
-5,
-6,
-8,
-10,
-11,
-13,
-14,
-15,
-18,
-19,
-20,
-22,
-22,
-24,
-26,
-27,
-28,
-30,
-31,
-32,
-33,
-35,
-35,
-38,
-38,
-38,
-40,
-41,
-41,
-43,
-44,
-45,
-45,
-46,
-46,
-47,
-47,
-48,
-48,
-50,
-49,
-50,
-50,
-50,
-50,
-51,
-50,
-51,
-50,
-51,
-50,
-51,
-50,
-51,
-49,
-50,
-49,
-49,
-48,
-48,
-46,
-47,
-45,
-46,
-44,
-44,
-42,
-43,
-41,
-40,
-39,
-38,
-37,
-36,
-35,
-34,
-32,
-31,
-30,
-29,
-28,
-27,
-25,
-23,
-22,
-21,
-18,
-18,
-16,
-15,
-13,
-12,
-10,
-8,
-7,
-6,
-4,
-2,
-1,
1,
3,
3,
5,
7,
9,
10,
12,
13,
15,
16,
18,
19,
20,
21,
23,
25,
25,
27,
28,
30,
30,
31,
33,
34,
34,
36,
37,
37,
39,
40,
41,
41,
43,
42,
44,
44,
45,
45,
45,
46,
46,
47,
47,
47,
48,
48,
48,
48,
48,
47,
48,
48,
48,
47,
47,
46,
46,
45,
44,
45,
44,
44,
43,
42,
42,
41,
40,
39,
38,
37,
36,
35,
34,
33,
32,
30,
30,
29,
27,
26,
25,
24,
22,
21,
18,
17,
16,
15,
13,
13,
11,
9,
7,
6,
4,
2,
1,
0,
-2,
-3,
-5,
-7,
-8,
-10,
-12,
-12,
-14,
-16,
-18,
-19,
-20,
-22,
-23,
-25,
-26,
-27,
-28,
-30,
-31,
-32,
-33,
-35,
-36,
-38,
-38,
-39,
-40,
-41,
-41,
-43,
-44,
-45,
-44,
-46,
-46,
-47,
-48,
-47,
-48,
-50,
-50,
-50,
-50,
-51,
-50,
-51,
-50,
-51,
-51,
-51,
-50,
-51,
-50,
-50,
-50,
-50,
-49,
-49,
-48,
-48,
-47,
-46,
-45,
-46,
-44,
-43,
-42,
-42,
-41,
-40,
-39,
-39,
-37,
-35,
-35,
-35,
-32,
-31,
-30,
-29,
-28,
-26,
-24,
-23,
-21,
-20,
-18,
-18,
-16,
-15,
-13,
-12,
-10,
-9,
-6,
-6,
-4,
-2,
0,
0,
2,
4,
5,
6,
9,
10,
12,
13,
14,
15,
18,
18,
21,
21,
23,
24,
26,
27,
28,
29,
31,
31,
33,
