GUI_pyQt/FPGA Testing/Power Levels/pulse_test_data/double_pulse_test_data_v052/2000_1000_2000_double_pulse.CSV

Memory Length,4000,
Trigger Level,1.000E+00,
Source,CH1,
Probe,1X,
Vertical Units,V,
Vertical Scale,1.000E+00,
Vertical Position,0.000E+00,
Horizontal Units,s,
Horizontal Scale,1.000E-03,
Horizontal Position,3.000E-03,
Horizontal Mode,Main,
Sampling Period,4.000E-06,
Firmware,V1.11,
Time, ,
Mode,Fast,
Waveform Data,
0,
0,
-1,
-1,
-1,
-1,
-1,
-1,
-1,
-1,
-1,
-1,
-1,
-1,
-1,
-1,
-2,
-1,
-1,
-1,
-1,
-1,
-1,
-1,
-1,
-1,
-1,
-1,
-1,
-1,
-1,
-1,
-1,
-1,
-2,
-1,
-1,
-1,
-1,
-1,
-1,
-1,
-1,
-1,
-1,
-1,
-1,
0,
-1,
-1,
-1,
-1,
-1,
-1,
-1,
-1,
-1,
-1,
-1,
-1,
-1,
-1,
-1,
-1,
-1,
-1,
-1,
0,
-1,
-1,
-1,
-1,
-1,
-1,
-1,
-1,
-1,
-1,
-1,
-1,
0,
-1,
-1,
-1,
-1,
0,
-1,
-1,
-1,
-1,
0,
-1,
-1,
-1,
-1,
-1,
0,
-1,
-1,
0,
-1,
0,
-1,
0,
-1,
-1,
-1,
-1,
-1,
0,
0,
-1,
-1,
-1,
-1,
0,
0,
-1,
-1,
-1,
-1,
-1,
-1,
0,
-1,
-1,
-1,
-1,
0,
-1,
-1,
-1,
-1,
0,
-1,
-1,
-1,
-1,
-1,
-1,
-1,
-1,
-1,
-1,
0,
-1,
-1,
-1,
-1,
-1,
-1,
-1,
0,
-1,
-1,
-1,
-1,
-1,
-1,
-1,
-1,
-1,
-1,
-1,
-1,
-1,
-1,
-1,
-1,
-1,
-1,
-1,
-1,
-1,
-1,
-1,
-1,
-1,
-1,
-1,
-1,
-1,
-1,
-1,
-1,
-1,
-1,
-1,
-1,
-1,
-1,
-1,
-1,
-1,
-1,
-1,
-1,
-1,
-1,
-1,
-1,
-1,
-1,
-1,
-1,
-1,
-1,
-1,
-1,
-1,
-1,
-1,
-1,
-1,
-1,
-1,
-1,
-2,
-1,
0,
-1,
0,
-1,
-1,
-1,
-2,
-1,
-1,
-1,
0,
-1,
-1,
-1,
-1,
-1,
-1,
-1,
-1,
-1,
-1,
-1,
-1,
-1,
-1,
-1,
-1,
-1,
-1,
-1,
-1,
-1,
-1,
-1,
-1,
-1,
-1,
0,
-1,
-1,
-1,
-1,
-1,
-1,
-1,
-1,
-1,
-1,
-1,
0,
-1,
-1,
-1,
-1,
0,
-1,
-1,
-1,
-1,
0,
0,
-1,
-1,
-1,
0,
0,
-1,
0,
-1,
-1,
-1,
0,
-1,
-1,
-1,
-1,
-1,
-1,
-1,
-1,
-1,
-1,
0,
-1,
-1,
-1,
-1,
-1,
-1,
-1,
-1,
-1,
-1,
-1,
-1,
-1,
-1,
-1,
-1,
-1,
-1,
-1,
-1,
-1,
-1,
-1,
-1,
-1,
-1,
-1,
-1,
-1,
-1,
-1,
-2,
-1,
-1,
0,
-1,
0,
-1,
-1,
-1,
-1,
-1,
-1,
-1,
-1,
-1,
-1,
-1,
-1,
-1,
-1,
-1,
-1,
-1,
-1,
-1,
-1,
-1,
-1,
-1,
-1,
-1,
-1,
-1,
-1,
-1,
-1,
-1,
-1,
-1,
-1,
-1,
-1,
-1,
0,
-1,
-1,
-1,
-1,
-1,
-1,
-1,
-1,
-1,
-1,
-1,
-1,
-1,
-1,
-1,
-1,
-1,
-1,
-1,
-1,
-1,
-1,
-1,
-1,
-1,
-1,
-1,
-1,
-1,
-1,
-1,
-1,
-1,
0,
-1,
-1,
-1,
-1,
-1,
-1,
-1,
-1,
-1,
-1,
-1,
-1,
-1,
-1,
-1,
0,
-1,
-1,
-1,
-1,
0,
-1,
-1,
-1,
-1,
-1,
0,
-1,
-1,
-1,
-1,
-2,
-1,
-2,
-1,
-1,
-1,
-1,
-1,
-1,
-1,
-1,
-1,
-1,
-1,
-1,
-1,
-1,
-1,
-1,
-1,
-1,
-1,
-1,
-1,
-1,
-1,
-1,
-1,
-1,
-1,
-1,
-1,
-1,
0,
-1,
-1,
-1,
-1,
-1,
-1,
-1,
-1,
-1,
0,
-1,
-1,
-1,
-1,
-1,
-1,
-1,
-1,
-1,
-1,
-1,
-1,
-1,
0,
-1,
-1,
-1,
-1,
-1,
-1,
-1,
-1,
-1,
-2,
-1,
-1,
-1,
-1,
-1,
-1,
-1,
-1,
-1,
-1,
-1,
-1,
-2,
-1,
-1,
-1,
-1,
-1,
-1,
-1,
0,
-1,
-1,
-1,
-1,
-1,
0,
-1,
-1,
-1,
-1,
-1,
-1,
-1,
-1,
-1,
-1,
-1,
-2,
-1,
-1,
-1,
-1,
-1,
-1,
-1,
-1,
-1,
-1,
-1,
-1,
-1,
-1,
-1,
-2,
-1,
-1,
-1,
-1,
-1,
-1,
-1,
-1,
-1,
-1,
-1,
-1,
-1,
-1,
-1,
-1,
-1,
-1,
-1,
-1,
-1,
-1,
-1,
-1,
-1,
-1,
-1,
-1,
-1,
-1,
-1,
-1,
-1,
-1,
-1,
-1,
-1,
-1,
-1,
-1,
-1,
-1,
0,
-1,
-1,
-1,
-1,
-1,
-1,
-1,
-1,
-1,
-1,
-1,
-1,
-1,
-1,
-1,
-1,
-1,
-1,
-1,
-1,
-1,
-1,
-1,
-1,
-1,
-1,
-1,
-1,
-1,
-1,
-1,
-1,
-1,
-1,
-1,
-1,
-1,
-1,
-1,
0,
-1,
-1,
-1,
-1,
-1,
-1,
-1,
0,
-1,
-1,
-1,
-1,
-1,
-1,
-1,
-1,
-1,
-1,
-1,
-1,
-1,
-1,
-1,
-1,
-1,
-1,
-1,
-1,
-1,
-1,
-1,
-1,
-1,
-1,
-1,
-1,
-1,
-1,
0,
-1,
-1,
-1,
-1,
-1,
-1,
-1,
-1,
-1,
-2,
-1,
-1,
-1,
-1,
0,
-1,
-1,
-1,
-1,
-1,
0,
-1,
-1,
-1,
0,
-1,
-1,
-1,
-1,
-1,
-1,
-1,
-1,
-1,
-1,
-1,
-1,
-1,
-1,
-1,
0,
-1,
-1,
-1,
-1,
-1,
-1,
-1,
-1,
-1,
-1,
-1,
-1,
-1,
-1,
-1,
-1,
-1,
-1,
-1,
-1,
-1,
-1,
-1,
-1,
-1,
0,
-1,
-1,
-1,
-1,
0,
-1,
-1,
-1,
-2,
-1,
-1,
-1,
-1,
-1,
-1,
0,
-1,
-1,
-1,
-1,
-1,
-1,
-1,
-1,
-1,
-1,
-1,
-1,
0,
0,
0,
0,
-1,
-1,
-1,
-1,
-1,
0,
-1,
-1,
-1,
-1,
-1,
-1,
-1,
-1,
-1,
-1,
-1,
-1,
0,
0,
-1,
-1,
0,
-1,
-1,
-1,
-1,
0,
-1,
0,
-1,
-2,
0,
-1,
-1,
-1,
-1,
-1,
-1,
-1,
-1,
-1,
-1,
-1,
-1,
-1,
-1,
-1,
-1,
-1,
-1,
-1,
-1,
-1,
-1,
-1,
-1,
-1,
0,
-1,
-1,
0,
-1,
-1,
-1,
-1,
-1,
-1,
-1,
-1,
-1,
-1,
-1,
-1,
0,
-1,
-1,
-1,
-1,
-1,
0,
-1,
-1,
0,
-1,
-1,
-1,
-1,
-1,
-1,
-1,
-1,
-1,
0,
-1,
0,
-1,
-1,
-1,
-1,
-1,
-1,
-1,
-1,
-1,
-1,
-1,
-1,
-1,
-1,
-1,
-1,
-1,
-1,
-1,
-1,
-1,
-1,
-1,
-1,
-1,
-1,
-1,
-1,
-1,
-1,
0,
0,
-1,
-1,
-1,
-1,
-1,
-1,
-1,
-1,
-1,
-1,
0,
-1,
0,
-1,
0,
-1,
-1,
0,
0,
-1,
0,
-1,
0,
-1,
-1,
-1,
-1,
-1,
0,
-1,
-1,
-1,
-1,
-1,
-1,
-1,
0,
-1,
-1,
0,
-1,
-1,
-1,
-1,
-1,
-1,
-1,
0,
-1,
-1,
-1,
-1,
-1,
0,
-1,
-1,
0,
-1,
0,
-1,
-1,
-1,
-1,
0,
-1,
-1,
-1,
0,
-1,
-1,
-1,
-1,
0,
0,
-1,
-1,
-1,
-1,
0,
-1,
-1,
-1,
-1,
-1,
-1,
-1,
-1,
-1,
-1,
-1,
-1,
-1,
-1,
-1,
-1,
-2,
-1,
-1,
-1,
-1,
0,
-1,
0,
-1,
-1,
0,
-1,
-1,
0,
-1,
-1,
-1,
-1,
-1,
-1,
0,
-1,
0,
-1,
-1,
-1,
-1,
-1,
-1,
-1,
-1,
-1,
-1,
-1,
-1,
-1,
-1,
0,
-1,
-1,
-1,
0,
0,
-1,
0,
-1,
-1,
-1,
-1,
-1,
-1,
-1,
-1,
-1,
0,
-1,
-1,
-1,
-1,
0,
0,
-1,
-1,
-1,
-1,
-1,
-1,
-1,
-1,
-1,
-1,
0,
-1,
0,
-1,
-1,
-1,
-1,
-1,
-1,
-1,
-1,
-1,
-1,
-1,
-1,
-1,
-1,
-1,
-1,
-1,
-1,
-1,
-1,
0,
-1,
-1,
-1,
0,
-1,
-1,
-1,
-1,
-1,
-1,
-1,
-1,
-1,
-1,
0,
-1,
-1,
-1,
-1,
-1,
-1,
-1,
-1,
-1,
-1,
-1,
-1,
-1,
-1,
-1,
-1,
-1,
-1,
-1,
-1,
-1,
-1,
-1,
-1,
-1,
-1,
-1,
-1,
0,
-1,
-1,
-1,
-1,
-1,
-1,
-1,
-1,
-1,
0,
-1,
-1,
-1,
-1,
-1,
-1,
-1,
0,
0,
-1,
-1,
-1,
-1,
0,
-1,
0,
-1,
-1,
-1,
-1,
-1,
-1,
-1,
-1,
-1,
-1,
-1,
-1,
-1,
-1,
0,
-1,
0,
-1,
-1,
-1,
0,
-1,
-1,
-1,
0,
-1,
-1,
-1,
-1,
-1,
0,
-1,
-1,
-1,
-1,
0,
-1,
-1,
-1,
-1,
-1,
-1,
-1,
-1,
0,
-1,
-1,
-1,
-1,
-1,
-1,
-1,
-1,
-1,
-1,
-1,
-1,
-1,
-1,
-1,
-1,
-1,
-1,
-1,
-1,
-1,
-1,
-1,
-1,
-1,
-1,
-1,
0,
-1,
-1,
80,
81,
81,
81,
81,
81,
81,
81,
81,
81,
81,
81,
81,
81,
81,
81,
81,
81,
81,
81,
81,
82,
81,
81,
81,
81,
81,
81,
81,
81,
81,
81,
81,
81,
81,
82,
81,
81,
81,
81,
81,
81,
81,
81,
81,
81,
82,
81,
81,
81,
81,
81,
81,
81,
81,
81,
81,
81,
81,
81,
81,
81,
81,
81,
81,
81,
81,
81,
81,
81,
81,
81,
81,
81,
81,
81,
81,
81,
81,
81,
81,
81,
81,
81,
81,
81,
81,
81,
81,
81,
81,
81,
81,
81,
81,
81,
81,
81,
81,
81,
81,
81,
81,
81,
81,
81,
81,
81,
81,
81,
81,
81,
81,
81,
81,
81,
81,
81,
81,
81,
81,
81,
81,
81,
81,
81,
81,
81,
81,
81,
81,
81,
81,
81,
81,
81,
82,
81,
81,
81,
81,
81,
81,
81,
81,
81,
81,
81,
81,
81,
81,
81,
81,
81,
81,
81,
81,
81,
81,
81,
81,
81,
81,
81,
81,
81,
81,
81,
81,
81,
81,
81,
81,
81,
81,
81,
81,
81,
81,
81,
81,
80,
81,
81,
81,
81,
81,
81,
81,
81,
81,
81,
81,
81,
81,
81,
81,
81,
81,
81,
81,
81,
81,
81,
81,
81,
81,
81,
81,
81,
81,
81,
81,
81,
81,
81,
81,
81,
81,
81,
81,
81,
80,
81,
81,
81,
81,
81,
81,
81,
81,
81,
81,
81,
81,
81,
81,
81,
81,
81,
81,
81,
81,
81,
81,
80,
81,
81,
81,
81,
81,
81,
81,
81,
81,
81,
81,
81,
81,
81,
81,
81,
81,
81,
81,
81,
81,
81,
81,
80,
81,
81,
81,
81,
81,
80,
81,
80,
81,
81,
81,
81,
81,
81,
81,
81,
81,
81,
81,
81,
81,
81,
81,
81,
81,
80,
81,
81,
81,
81,
81,
81,
81,
81,
81,
81,
81,
81,
81,
81,
81,
81,
81,
81,
81,
81,
81,
81,
81,
81,
81,
81,
81,
81,
81,
80,
81,
81,
81,
81,
81,
81,
81,
81,
81,
81,
81,
81,
81,
81,
80,
81,
81,
80,
81,
81,
81,
80,
80,
81,
81,
81,
81,
81,
81,
81,
80,
80,
80,
81,
81,
80,
81,
81,
81,
81,
81,
80,
81,
81,
81,
81,
81,
81,
81,
81,
81,
81,
80,
81,
81,
81,
81,
81,
81,
80,
81,
81,
81,
81,
80,
80,
81,
81,
81,
80,
81,
81,
81,
81,
81,
80,
80,
80,
80,
81,
81,
80,
81,
81,
80,
81,
81,
81,
81,
81,
81,
81,
81,
81,
80,
81,
80,
80,
81,
81,
80,
81,
80,
81,
81,
81,
80,
81,
81,
81,
81,
81,
80,
80,
81,
80,
80,
81,
81,
81,
81,
81,
81,
81,
81,
81,
80,
81,
81,
81,
81,
81,
81,
81,
81,
81,
81,
81,
81,
80,
81,
80,
81,
80,
80,
81,
81,
81,
81,
80,
81,
80,
80,
81,
81,
80,
81,
81,
80,
80,
81,
81,
80,
81,
80,
81,
81,
81,
81,
80,
80,
80,
81,
80,
0,
-1,
-1,
-2,
-2,
-2,
-2,
-2,
-2,
-2,
-1,
-2,
-1,
-2,
-1,
-2,
-1,
-2,
-2,
-2,
-2,
-1,
-2,
-2,
-2,
-2,
-1,
-1,
-2,
-2,
-2,
-2,
-2,
-1,
-2,
-2,
-2,
-2,
-2,
-2,
-2,
-2,
-2,
-2,
-2,
-2,
-2,
-2,
-2,
-2,
-1,
-2,
-2,
-2,
-2,
-2,
-2,
-2,
-1,
-1,
-2,
-2,
-2,
-1,
-1,
-2,
-2,
-2,
-2,
-2,
-2,
-1,
-2,
-2,
-1,
-2,
-2,
-1,
-1,
-2,
-1,
-1,
-2,
-1,
-1,
-2,
-1,
-1,
-1,
-1,
-2,
-2,
-2,
-1,
-1,
-2,
-1,
-1,
-1,
-2,
-2,
-1,
-2,
-2,
-1,
-1,
-2,
-2,
-2,
-2,
-1,
-2,
-2,
-2,
-2,
-1,
-2,
-2,
-2,
-1,
-2,
-1,
-2,
-1,
-1,
-2,
-1,
-1,
-2,
-2,
-2,
-2,
-2,
-2,
-1,
-1,
-1,
-2,
-2,
-2,
-1,
-2,
-1,
-2,
-1,
-1,
-1,
-1,
-2,
-2,
-1,
-2,
-1,
-2,
-1,
-2,
-2,
-1,
-2,
-2,
-1,
-1,
-2,
-2,
-1,
-1,
-1,
-2,
-1,
-1,
-1,
-1,
-1,
-1,
-1,
-1,
-1,
-1,
-2,
-2,
-1,
-1,
-1,
-2,
-1,
-1,
-2,
-1,
-1,
-1,
-2,
-1,
-2,
-1,
-2,
-2,
-1,
-1,
-1,
-1,
-2,
-2,
-1,
-2,
-1,
-1,
-2,
-1,
-2,
-1,
-2,
-1,
-2,
-1,
-1,
-1,
-1,
-2,
-1,
-1,
-2,
-1,
-1,
-2,
-1,
-1,
-2,
-1,
-1,
-2,
-2,
-2,
-1,
-1,
-1,
-1,
-1,
-1,
-2,
-1,
-1,
-2,
-1,
-1,
-1,
-1,
-2,
-2,
-2,
-1,
79,
81,
81,
81,
81,
81,
81,
81,
81,
81,
81,
81,
80,
81,
80,
81,
81,
81,
81,
81,
81,
81,
81,
81,
81,
81,
81,
81,
81,
81,
81,
81,
81,
81,
81,
81,
81,
81,
81,
81,
81,
81,
81,
81,
81,
81,
81,
80,
81,
81,
81,
81,
81,
81,
81,
81,
81,
81,
81,
81,
81,
81,
81,
81,
81,
81,
81,
81,
81,
81,
81,
81,
81,
81,
81,
81,
80,
81,
80,
81,
81,
81,
81,
81,
81,
81,
81,
81,
81,
81,
81,
81,
81,
81,
81,
81,
81,
81,
81,
81,
81,
80,
81,
81,
81,
81,
81,
81,
81,
81,
81,
81,
81,
81,
81,
81,
81,
81,
81,
81,
81,
81,
81,
81,
81,
81,
81,
81,
81,
81,
81,
81,
81,
80,
81,
81,
81,
81,
81,
81,
81,
81,
81,
81,
81,
81,
81,
81,
81,
81,
81,
81,
81,
81,
81,
81,
81,
81,
81,
81,
80,
81,
81,
81,
81,
81,
81,
81,
81,
81,
81,
81,
81,
81,
81,
81,
81,
81,
81,
81,
81,
81,
81,
81,
81,
81,
81,
81,
81,
81,
81,
81,
81,
81,
81,
81,
81,
81,
81,
81,
81,
81,
81,
81,
81,
81,
81,
81,
81,
80,
81,
81,
81,
81,
81,
80,
81,
81,
81,
81,
81,
81,
81,
81,
81,
81,
81,
81,
80,
81,
80,
81,
81,
80,
81,
81,
81,
81,
81,
80,
81,
81,
81,
81,
81,
81,
81,
81,
81,
81,
81,
80,
81,
81,
81,
81,
81,
81,
81,
81,
81,
81,
81,
81,
81,
81,
81,
81,
81,
81,
81,
81,
81,
81,
81,
80,
81,
81,
81,
81,
81,
81,
81,
81,
81,
81,
81,
81,
81,
81,
81,
81,
81,
80,
81,
81,
81,
81,
81,
81,
81,
80,
81,
81,
81,
81,
81,
81,
81,
81,
81,
81,
81,
81,
81,
81,
81,
81,
80,
81,
81,
81,
80,
81,
81,
81,
81,
81,
81,
81,
81,
81,
81,
81,
81,
80,
81,
81,
81,
81,
81,
81,
80,
81,
81,
81,
81,
81,
81,
81,
81,
81,
81,
81,
81,
81,
81,
81,
81,
81,
81,
81,
81,
81,
81,
81,
81,
81,
81,
81,
81,
81,
81,
81,
81,
81,
81,
81,
81,
81,
81,
81,
81,
81,
81,
81,
81,
80,
81,
81,
81,
81,
81,
81,
81,
81,
81,
81,
81,
81,
81,
81,
81,
80,
81,
81,
81,
81,
81,
81,
81,
81,
81,
81,
81,
81,
81,
81,
80,
81,
81,
81,
80,
81,
80,
81,
80,
81,
81,
81,
81,
81,
81,
81,
80,
81,
81,
81,
81,
81,
81,
81,
81,
80,
81,
81,
81,
81,
81,
81,
81,
81,
81,
81,
81,
81,
81,
80,
81,
81,
81,
81,
81,
81,
81,
81,
81,
81,
81,
81,
81,
81,
81,
81,
81,
81,
80,
81,
81,
81,
81,
81,
81,
81,
81,
81,
81,
81,
81,
81,
81,
80,
81,
81,
81,
81,
81,
81,
81,
81,
0,
-1,
-1,
-1,
-1,
-1,
-1,
-2,
-1,
-1,
-2,
-1,
-2,
-1,
-2,
-2,
-1,
-1,
-2,
-2,
-1,
-2,
-1,
-1,
-2,
-1,
-1,
-1,
-1,
-1,
-2,
-1,
-1,
-1,
-2,
-1,
-1,
-1,
-2,
-1,
-2,
-1,
-2,
-1,
-1,
-1,
-1,
-1,
-1,
-1,
-1,
-1,
-2,
-1,
-2,
-1,
-1,
-1,
-1,
-2,
-1,
-2,
-1,
-1,
-1,
-2,
-1,
-1,
-1,
-1,
-1,
-1,
-1,
-1,
-1,
-1,
-1,
-1,
-1,
-1,
-1,
-1,
-1,
-1,
-2,
-1,
-2,
-2,
-1,
-1,
-1,
-1,
-1,
-2,
-1,
-1,
-1,
-1,
-1,
-1,
-1,
-1,
-1,
-1,
-1,
-1,
-1,
-1,
-1,
-1,
-2,
-2,
-1,
-1,
-1,
-1,
-1,
-2,
-1,
-2,
-1,
-1,
-2,
-2,
-1,
-1,
-1,
-1,
-1,
-1,
-1,
-2,
-1,
-1,
-1,
-1,
-1,
-1,
-1,
-1,
-1,
-1,
-1,
-1,
-1,
-1,
-1,
-1,
-1,
-1,
-1,
-1,
-1,
-1,
-1,
-1,
-1,
-1,
-2,
-1,
-1,
-1,
-1,
-1,
-1,
-1,
-1,
-1,
-1,
-1,
-1,
-1,
-1,
-1,
0,
-1,
-1,
-1,
-1,
-1,
-1,
-1,
-1,
-1,
-1,
-1,
-1,
-1,
-2,
-1,
-1,
-1,
-1,
-1,
-1,
-1,
-1,
-1,
-1,
-1,
-1,
-1,
-1,
-1,
-1,
-1,
-1,
-1,
-1,
-1,
-1,
-1,
-1,
-1,
-1,
-1,
-1,
-1,
-1,
-1,
-1,
-1,
-1,
-1,
0,
-1,
-1,
-1,
-1,
-1,
-1,
-1,
-1,
-1,
-1,
-1,
-1,
-2,
-1,
-1,
-1,
-1,
-1,
-1,
-1,
-1,
-1,
-1,
-1,
-1,
0,
-1,
-1,
-1,
-1,
-1,
-1,
-1,
-1,
-1,
-1,
-1,
-1,
-1,
-1,
-1,
-1,
-1,
0,
-1,
-1,
-1,
-1,
-1,
-1,
-1,
0,
-1,
-1,
-1,
-1,
-1,
-1,
-1,
0,
0,
0,
-1,
-1,
-1,
-1,
-1,
-1,
-1,
-1,
-1,
-1,
0,
0,
-1,
-1,
-1,
-1,
0,
0,
-1,
-1,
0,
-1,
-1,
-1,
-1,
-1,
-1,
-1,
-1,
-1,
-1,
-1,
-1,
-1,
-1,
-1,
-1,
-1,
-1,
-1,
-1,
-1,
-1,
-1,
-1,
-1,
-1,
-1,
-1,
-1,
0,
-1,
-2,
0,
-1,
-1,
-1,
-1,
-1,
-1,
0,
-1,
-1,
-1,
0,
-1,
-1,
0,
0,
-1,
-1,
-1,
-1,
-1,
-1,
-1,
-1,
-1,
-1,
-1,
-1,
0,
-1,
-1,
-1,
-1,
-1,
-1,
0,
-1,
-1,
-1,
0,
-1,
-1,
0,
-1,
-1,
-1,
-1,
0,
-1,
0,
0,
0,
-1,
-1,
-1,
0,
0,
-1,
-1,
0,
-1,
-1,
0,
-1,
0,
-1,
-1,
-1,
-1,
0,
-1,
-1,
-1,
0,
0,
-1,
0,
-1,
-1,
0,
-1,
0,
-1,
0,
-1,
-1,
0,
-1,
-1,
0,
0,
-1,
-1,
-1,
0,
-1,
-1,
-1,
-1,
-1,
0,
-1,
0,
-1,
0,
0,
-1,
0,
0,
-1,
0,
-1,
0,
-1,
-1,
-1,
-1,
-1,
-1,
-1,
-1,
-1,
-1,
-1,
-1,
-1,
0,
-1,
0,
-1,
0,
-1,
-1,
0,
-1,
-1,
-1,
-1,
-1,
-1,
-1,
-1,
0,
-1,
0,
-1,
-1,
-1,
-1,
0,
-1,
-1,
-1,
-1,
-1,
0,
0,
-1,
-1,
-1,
-1,
0,
-1,
0,
-1,
-1,
0,
0,
0,
-1,
0,
0,
0,
0,
0,
-1,
-1,
-1,
0,
-1,
0,
-1,
0,
0,
0,
0,
-1,
-1,
-1,
0,
-1,
-1,
-1,
0,
-1,
-1,
-1,
-1,
0,
-1,
-1,
-1,
-1,
-1,
-1,
-1,
-1,
0,
0,
-1,
-1,
-1,
-1,
0,
-1,
-1,
0,
-1,
-1,
0,
-1,
-1,
-1,
0,
-1,
0,
0,
-1,
0,
0,
-1,
-1,
0,
0,
0,
0,
0,
-1,
-1,
0,
0,
0,
0,
-1,
-1,
-1,
-1,
-1,
-1,
0,
-1,
-2,
0,
0,
-1,
-1,
-1,
-1,
-1,
-1,
-1,
-1,
-1,
-1,
0,
0,
0,
0,
-1,
0,
0,
-1,
0,
-1,
-1,
0,
-1,
0,
0,
0,
0,
-1,
0,
0,
-1,
0,
-1,
0,
0,
-1,
-1,
0,
0,
0,
0,
-1,
0,
0,
-1,
-1,
0,
-1,
0,
-1,
0,
0,
-1,
0,
0,
0,
-1,
-1,
-1,
0,
0,
-1,
0,
0,
0,
-1,
0,
0,
0,
0,
-1,
-1,
0,
0,
-1,
0,
0,
0,
-1,
-1,
0,
0,
0,
0,
0,
-1,
0,
-1,
0,
0,
0,
-1,
-1,
-1,
0,
0,
0,
0,
-1,
-1,
0,
-1,
-1,
0,
0,
0,
0,
0,
1,
0,
-1,
-1,
-1,
-1,
0,
0,
-1,
0,
0,
0,
0,
0,
1,
-1,
-1,
0,
-1,
-1,
0,
0,
-1,
0,
-1,
-1,
0,
0,
-1,
-1,
0,
0,
-1,
0,
-1,
0,
-1,
-1,
-1,
0,
0,
0,
-1,
0,
0,
0,
0,
-1,
-1,
0,
0,
0,
-1,
0,
0,
-1,
0,
0,
0,
-1,
0,
0,
-1,
-1,
0,
0,
0,
-1,
-1,
0,
0,
-1,
-1,
-1,
-1,
0,
0,
0,
0,
0,
-1,
0,
0,
-1,
0,
0,
0,
1,
0,
0,
0,
0,
0,
0,
-1,
0,
0,
-1,
0,
-1,
0,
-1,
0,
-1,
-1,
-1,
-1,
-1,
0,
-1,
-1,
0,
0,
0,
-1,
-1,
-1,
-1,
0,
0,
0,
-1,
0,
1,
-1,
0,
0,
-1,
-1,
-1,
0,
0,
0,
0,
-1,
-1,
0,
-1,
0,
-1,
-1,
0,
-1,
0,
0,
0,
0,
1,
0,
0,
-1,
-1,
-1,
-1,
-1,
0,
-1,
0,
-1,
1,
0,
0,
0,
0,
-1,
0,
-1,
0,
0,
0,
-1,
-1,
0,
0,
-1,
0,
0,
0,
-1,
-1,
-1,
0,
0,
-1,
0,
-1,
0,
0,
0,
0,
0,
0,
0,
-1,
0,
0,
-1,
-1,
0,
-1,
0,
-1,
0,
-1,
0,
0,
0,
-1,
0,
-1,
0,
0,
0,
0,
0,
-1,
0,
0,
-1,
0,
0,
0,
0,
-1,
0,
0,
0,
0,
0,
-1,
0,
-1,
-1,
-1,
-1,
-1,
0,
-1,
-1,
-1,
0,
0,
0,
0,
0,
-1,
0,
-1,
0,
-1,
0,
-1,
0,
0,
0,
-1,
0,
-1,
0,
0,
-1,
0,
0,
0,
0,
-1,
0,
-1,
0,
0,
-1,
-1,
0,
0,
0,
0,
0,
0,
-1,
-1,
-1,
-1,
-1,
0,
-1,
1,
0,
0,
0,
-1,
0,
-1,
0,
-1,
0,
-1,
0,
0,
-1,
-1,
-1,
0,
0,
0,
0,
-1,
-1,
-1,
-1,
0,
0,
0,
-1,
-1,
0,
-1,
0,
-1,
-1,
-1,
-1,
-1,
-1,
-1,
0,
-1,
0,
0,
-1,
0,
-1,
0,
-1,
0,
0,
-1,
0,
1,
0,
0,
0,
0,
1,
0,
0,
-1,
-1,
-1,
-1,
0,
0,
0,
0,
0,
-1,
-1,
-1,
0,
-1,
-1,
0,
0,
0,
-1,
-1,
0,
0,
0,
-1,
0,
0,
0,
0,
-1,
0,
0,
0,
0,
-1,
-1,
-1,
-1,
0,
0,
-1,
-1,
0,
-1,
0,
-1,
-1,
1,
-1,
0,
0,
0,
-1,
-1,
-1,
0,
0,
0,
0,
-1,
-1,
0,
0,
0,
-1,
-1,
0,
0,
-1,
0,
0,
0,
-1,
0,
-1,
-1,
-1,
-1,
1,
0,
0,
0,
0,
-1,
0,
0,
0,
0,
-1,
-1,
0,
-1,
0,
-1,
-1,
1,
0,
0,
-1,
0,
0,
0,
0,
1,
0,
0,
-1,
0,
0,
-1,
0,
-1,
0,
0,
0,
0,
0,
0,
-1,
0,
0,
0,
0,
-1,
0,
-1,
0,
0,
-1,
0,
0,
0,
-1,
-1,
0,
0,
0,
0,
-1,
0,
-1,
0,
-1,
0,
-1,
0,
-1,
-1,
-1,
0,
0,
0,
-1,
0,
0,
0,
0,
0,
-1,
-1,
0,
0,
-1,
0,
0,
-1,
0,
-1,
0,
0,
0,
0,
0,
-1,
0,
0,
-1,
0,
-1,
0,
0,
0,
-1,
-1,
0,
-1,
-1,
-1,
0,
-1,
-1,
-1,
0,
0,
-1,
-1,
1,
0,
-1,
0,
0,
-1,
0,
-1,
0,
0,
-1,
0,
0,
-1,
0,
-1,
0,
0,
0,
-1,
-1,
-1,
1,
0,
0,
-1,
-1,
-1,
0,
-1,
0,
-1,
0,
0,
0,
-1,
-1,
0,
0,
-1,
-1,
0,
0,
-1,
0,
-1,
-1,
-1,
-1,
0,
0,
0,
0,
-1,
-1,
-1,
-1,
0,
0,
-1,
-1,
0,
0,
0,
-1,
-1,
-1,
-1,
0,
0,
0,
-1,
-1,
0,
0,
0,
0,
-1,
-1,
-1,
0,
0,
0,
-1,
-1,
-1,
-1,
0,
0,
-1,
-1,
-1,
-1,
0,
0,
-1,
-1,
0,
-1,
0,
0,
0,
0,
-1,
-1,
0,
-1,
0,
0,
-1,
-1,
-1,
0,
0,
-1,
0,
0,
0,
0,
-1,
-1,
0,
0,
-1,
-1,
-1,
-1,
-1,
-1,
-1,
0,
-1,
-1,
0,
0,
0,
-1,
0,
-1,
-1,
0,
0,
-1,
-1,
0,
0,
0,
-1,
-1,
-1,
-1,
0,
-1,
-1,
0,
0,
-1,
0,
-1,
-1,
0,
-1,
-1,
-1,
0,
-1,
-1,
0,
0,
0,
-1,
-1,
-1,
-1,
0,
-1,
-1,
-1,
-1,
-1,
-1,
-1,
-1,
-1,
0,
0,
-1,
-1,
-1,
0,
-1,
-1,
-1,
-1,
0,
0,
0,
-1,
-1,
-1,
-1,
-1,
-1,
0,
-1,
-1,
-1,
0,
0,
-1,
-1,
0,
0,
0,
0,
-1,
0,
-1,
0,
-1,
-1,
-1,
0,
-1,
-1,
-1,
0,
0,
-1,
0,
-1,
0,
0,
-1,
-1,
0,
0,
-1,
0,
-1,
0,
-1,
-1,
-1,
-1,
-1,
-1,
-1,
-1,
0,
-1,
0,
-1,
-1,
-1,
0,
-1,
-1,
-1,
