GUI_pyQt/FPGA Testing/Power Levels/FPGA_output_test_data/LPF/FPGA_output_200MHz.csv

"Record Length",2000,"Points",-1.60000002e-008,      -0.008
"Sample Interval",5.00000007e-011,s,-1.59500002e-008,       0.008
"Trigger Point",320,"Samples",-1.59000002e-008,       0.008
"Trigger Time",3.95000089e-011,s,-1.58500002e-008,       0.024
"",,,-1.58000002e-008,       0.032
"Horizontal Offset",-1.60000002e-008,s,-1.57500002e-008,       0.032
,,,-1.57000002e-008,        0.04
,,,-1.56500002e-008,        0.06
,,,-1.56000002e-008,       0.056
,,,-1.55500002e-008,       0.064
,,,-1.55000002e-008,       0.076
,,,-1.54500002e-008,       0.072
,,,-1.54000002e-008,       0.088
,,,-1.53500002e-008,       0.096
,,,-1.53000002e-008,       0.096
,,,-1.52500002e-008,         0.1
,,,-1.52000002e-008,       0.116
,,,-1.51500002e-008,       0.104
,,,-1.51000002e-008,       0.124
,,,-1.50500002e-008,        0.12
,,,-1.50000002e-008,       0.116
,,,-1.49500002e-008,        0.12
,,,-1.49000002e-008,       0.116
,,,-1.48500002e-008,       0.124
,,,-1.48000002e-008,       0.124
,,,-1.47500002e-008,       0.132
,,,-1.47000002e-008,       0.132
,,,-1.46500002e-008,        0.12
,,,-1.46000002e-008,       0.132
,,,-1.45500002e-008,       0.132
,,,-1.45000002e-008,        0.14
,,,-1.44500002e-008,       0.124
,,,-1.44000002e-008,       0.112
,,,-1.43500002e-008,       0.112
,,,-1.43000002e-008,       0.116
,,,-1.42500002e-008,        0.12
,,,-1.42000002e-008,       0.108
,,,-1.41500002e-008,       0.096
,,,-1.41000002e-008,         0.1
,,,-1.40500002e-008,       0.084
,,,-1.40000002e-008,       0.076
,,,-1.39500002e-008,       0.076
,,,-1.39000002e-008,       0.068
,,,-1.38500002e-008,       0.056
,,,-1.38000002e-008,       0.056
,,,-1.37500002e-008,        0.04
,,,-1.37000002e-008,       0.036
,,,-1.36500002e-008,       0.032
,,,-1.36000002e-008,        0.02
,,,-1.35500002e-008,       0.016
,,,-1.35000002e-008,       0.012
,,,-1.34500002e-008,       0.004
,,,-1.34000002e-008,      -0.012
,,,-1.33500002e-008,      -0.016
,,,-1.33000002e-008,      -0.024
,,,-1.32500002e-008,      -0.032
,,,-1.32000002e-008,      -0.036
,,,-1.31500002e-008,      -0.052
,,,-1.31000002e-008,      -0.064
,,,-1.30500002e-008,      -0.064
,,,-1.30000002e-008,      -0.076
,,,-1.29500002e-008,      -0.076
,,,-1.29000002e-008,      -0.088
,,,-1.28500002e-008,      -0.096
,,,-1.28000002e-008,        -0.1
,,,-1.27500002e-008,        -0.1
,,,-1.27000002e-008,        -0.1
,,,-1.26500002e-008,      -0.108
,,,-1.26000002e-008,      -0.104
,,,-1.25500002e-008,      -0.112
,,,-1.25000002e-008,       -0.12
,,,-1.24500002e-008,      -0.112
,,,-1.24000002e-008,      -0.128
,,,-1.23500002e-008,      -0.112
,,,-1.23000002e-008,      -0.124
,,,-1.22500002e-008,      -0.132
,,,-1.22000002e-008,      -0.128
,,,-1.21500002e-008,      -0.132
,,,-1.21000002e-008,      -0.124
,,,-1.20500002e-008,      -0.116
,,,-1.20000002e-008,      -0.128
,,,-1.19500002e-008,      -0.112
,,,-1.19000002e-008,      -0.104
,,,-1.18500002e-008,      -0.104
,,,-1.18000002e-008,      -0.112
,,,-1.17500002e-008,      -0.108
,,,-1.17000002e-008,      -0.108
,,,-1.16500002e-008,      -0.104
,,,-1.16000002e-008,      -0.088
,,,-1.15500002e-008,      -0.096
,,,-1.15000002e-008,      -0.088
,,,-1.14500002e-008,      -0.068
,,,-1.14000002e-008,      -0.068
,,,-1.13500002e-008,      -0.068
,,,-1.13000002e-008,      -0.048
,,,-1.12500002e-008,      -0.052
,,,-1.12000001e-008,       -0.04
,,,-1.11500001e-008,      -0.024
,,,-1.11000001e-008,      -0.024
,,,-1.10500001e-008,      -0.008
,,,-1.10000001e-008,      -0.012
,,,-1.09500001e-008,           0
,,,-1.09000001e-008,       0.008
,,,-1.08500001e-008,        0.02
,,,-1.08000001e-008,       0.024
,,,-1.07500001e-008,       0.036
,,,-1.07000001e-008,       0.052
,,,-1.06500001e-008,       0.052
,,,-1.06000001e-008,       0.056
,,,-1.05500001e-008,        0.06
,,,-1.05000001e-008,       0.064
,,,-1.04500001e-008,       0.076
,,,-1.04000001e-008,       0.084
,,,-1.03500001e-008,       0.088
,,,-1.03000001e-008,       0.092
,,,-1.02500001e-008,         0.1
,,,-1.02000001e-008,         0.1
,,,-1.01500001e-008,       0.112
,,,-1.01000001e-008,       0.112
,,,-1.00500001e-008,       0.112
,,,-1.00000001e-008,       0.124
,,,-9.95000013e-009,       0.128
,,,-9.90000013e-009,       0.136
,,,-9.85000013e-009,        0.12
,,,-9.80000013e-009,       0.128
,,,-9.75000013e-009,        0.12
,,,-9.70000013e-009,       0.128
,,,-9.65000013e-009,       0.124
,,,-9.60000013e-009,       0.128
,,,-9.55000013e-009,       0.128
,,,-9.50000013e-009,       0.116
,,,-9.45000013e-009,        0.12
,,,-9.40000013e-009,       0.116
,,,-9.35000012e-009,       0.112
,,,-9.30000012e-009,       0.116
,,,-9.25000012e-009,         0.1
,,,-9.20000012e-009,       0.108
,,,-9.15000012e-009,       0.108
,,,-9.10000012e-009,       0.092
,,,-9.05000012e-009,       0.084
,,,-9.00000012e-009,        0.08
,,,-8.95000012e-009,       0.072
,,,-8.90000012e-009,        0.08
,,,-8.85000012e-009,       0.056
,,,-8.80000012e-009,       0.052
,,,-8.75000012e-009,       0.048
,,,-8.70000012e-009,        0.04
,,,-8.65000012e-009,        0.04
,,,-8.60000011e-009,       0.032
,,,-8.55000011e-009,       0.012
,,,-8.50000011e-009,       0.004
,,,-8.45000011e-009,           0
,,,-8.40000011e-009,      -0.016
,,,-8.35000011e-009,       -0.02
,,,-8.30000011e-009,       -0.02
,,,-8.25000011e-009,      -0.032
,,,-8.20000011e-009,      -0.044
,,,-8.15000011e-009,       -0.06
,,,-8.10000011e-009,      -0.064
,,,-8.05000011e-009,       -0.06
,,,-8.00000011e-009,       -0.08
,,,-7.95000011e-009,       -0.08
,,,-7.90000011e-009,      -0.084
,,,-7.8500001e-009,      -0.088
,,,-7.8000001e-009,      -0.096
,,,-7.7500001e-009,        -0.1
,,,-7.7000001e-009,      -0.104
,,,-7.6500001e-009,      -0.108
,,,-7.6000001e-009,      -0.104
,,,-7.5500001e-009,      -0.116
,,,-7.5000001e-009,       -0.12
,,,-7.4500001e-009,      -0.132
,,,-7.4000001e-009,      -0.136
,,,-7.3500001e-009,      -0.128
,,,-7.3000001e-009,      -0.136
,,,-7.2500001e-009,       -0.14
,,,-7.2000001e-009,      -0.128
,,,-7.1500001e-009,      -0.124
,,,-7.10000009e-009,      -0.128
,,,-7.05000009e-009,      -0.124
,,,-7.00000009e-009,      -0.124
,,,-6.95000009e-009,      -0.128
,,,-6.90000009e-009,      -0.116
,,,-6.85000009e-009,       -0.12
,,,-6.80000009e-009,      -0.108
,,,-6.75000009e-009,        -0.1
,,,-6.70000009e-009,      -0.104
,,,-6.65000009e-009,      -0.104
,,,-6.60000009e-009,      -0.088
,,,-6.55000009e-009,      -0.084
,,,-6.50000009e-009,      -0.084
,,,-6.45000009e-009,       -0.08
,,,-6.40000009e-009,      -0.076
,,,-6.35000008e-009,      -0.064
,,,-6.30000008e-009,      -0.056
,,,-6.25000008e-009,      -0.032
,,,-6.20000008e-009,      -0.032
,,,-6.15000008e-009,       -0.02
,,,-6.10000008e-009,      -0.028
,,,-6.05000008e-009,      -0.024
,,,-6.00000008e-009,           0
,,,-5.95000008e-009,           0
,,,-5.90000008e-009,       0.008
,,,-5.85000008e-009,       0.016
,,,-5.80000008e-009,        0.04
,,,-5.75000008e-009,       0.024
,,,-5.70000008e-009,       0.044
,,,-5.65000008e-009,       0.056
,,,-5.60000007e-009,       0.052
,,,-5.55000007e-009,       0.072
,,,-5.50000007e-009,       0.068
,,,-5.45000007e-009,       0.084
,,,-5.40000007e-009,       0.084
,,,-5.35000007e-009,       0.088
,,,-5.30000007e-009,       0.092
,,,-5.25000007e-009,         0.1
,,,-5.20000007e-009,       0.112
,,,-5.15000007e-009,       0.112
,,,-5.10000007e-009,       0.108
,,,-5.05000007e-009,       0.112
,,,-5.00000007e-009,        0.12
,,,-4.95000007e-009,       0.124
,,,-4.90000007e-009,       0.124
,,,-4.85000006e-009,       0.136
,,,-4.80000006e-009,        0.12
,,,-4.75000006e-009,       0.124
,,,-4.70000006e-009,       0.124
,,,-4.65000006e-009,       0.136
,,,-4.60000006e-009,       0.136
,,,-4.55000006e-009,       0.136
,,,-4.50000006e-009,        0.12
,,,-4.45000006e-009,       0.112
,,,-4.40000006e-009,       0.108
,,,-4.35000006e-009,        0.12
,,,-4.30000006e-009,       0.124
,,,-4.25000006e-009,         0.1
,,,-4.20000006e-009,         0.1
,,,-4.15000006e-009,       0.096
,,,-4.10000005e-009,       0.092
,,,-4.05000005e-009,       0.092
,,,-4.00000005e-009,       0.084
,,,-3.95000005e-009,        0.08
,,,-3.90000005e-009,       0.076
,,,-3.85000005e-009,       0.064
,,,-3.80000005e-009,       0.056
,,,-3.75000005e-009,       0.056
,,,-3.70000005e-009,        0.04
,,,-3.65000005e-009,       0.036
,,,-3.60000005e-009,       0.032
,,,-3.55000005e-009,       0.012
,,,-3.50000005e-009,       0.008
,,,-3.45000005e-009,      -0.004
,,,-3.40000005e-009,      -0.008
,,,-3.35000004e-009,       -0.02
,,,-3.30000004e-009,      -0.036
,,,-3.25000004e-009,      -0.028
,,,-3.20000004e-009,      -0.044
,,,-3.15000004e-009,      -0.044
,,,-3.10000004e-009,       -0.06
,,,-3.05000004e-009,      -0.052
,,,-3.00000004e-009,      -0.068
,,,-2.95000004e-009,      -0.084
,,,-2.90000004e-009,      -0.084
,,,-2.85000004e-009,       -0.08
,,,-2.80000004e-009,      -0.096
,,,-2.75000004e-009,      -0.088
,,,-2.70000004e-009,      -0.108
,,,-2.65000004e-009,      -0.104
,,,-2.60000003e-009,      -0.104
,,,-2.55000003e-009,       -0.12
,,,-2.50000003e-009,      -0.124
,,,-2.45000003e-009,       -0.12
,,,-2.40000003e-009,       -0.14
,,,-2.35000003e-009,      -0.128
,,,-2.30000003e-009,       -0.12
,,,-2.25000003e-009,      -0.124
,,,-2.20000003e-009,      -0.136
,,,-2.15000003e-009,      -0.124
,,,-2.10000003e-009,      -0.132
,,,-2.05000003e-009,      -0.132
,,,-2.00000003e-009,      -0.124
,,,-1.95000003e-009,      -0.128
,,,-1.90000003e-009,       -0.12
,,,-1.85000002e-009,      -0.108
,,,-1.80000002e-009,        -0.1
,,,-1.75000002e-009,      -0.112
,,,-1.70000002e-009,      -0.116
,,,-1.65000002e-009,      -0.092
,,,-1.60000002e-009,      -0.096
,,,-1.55000002e-009,      -0.088
,,,-1.50000002e-009,       -0.08
,,,-1.45000002e-009,      -0.072
,,,-1.40000002e-009,       -0.06
,,,-1.35000002e-009,      -0.064
,,,-1.30000002e-009,      -0.056
,,,-1.25000002e-009,      -0.052
,,,-1.20000002e-009,      -0.036
,,,-1.15000002e-009,      -0.024
,,,-1.10000001e-009,      -0.024
,,,-1.05000001e-009,      -0.008
,,,-1.00000001e-009,       0.004
,,,-9.50000013e-010,       0.004
,,,-9.00000012e-010,       0.016
,,,-8.50000011e-010,       0.028
,,,-8.00000011e-010,       0.032
,,,-7.5000001e-010,       0.036
,,,-7.00000009e-010,       0.048
,,,-6.50000009e-010,       0.052
,,,-6.00000008e-010,       0.056
,,,-5.50000007e-010,       0.064
,,,-5.00000007e-010,       0.068
,,,-4.50000006e-010,       0.076
,,,-4.00000005e-010,        0.08
,,,-3.50000005e-010,       0.084
,,,-3.00000004e-010,       0.088
,,,-2.50000003e-010,       0.092
,,,-2.00000003e-010,         0.1
,,,-1.50000002e-010,        0.12
,,,-1.00000001e-010,       0.104
,,,-5.00000007e-011,       0.112
,,,           0,        0.12
,,,5.00000007e-011,       0.124
,,,1.00000001e-010,       0.132
,,,1.50000002e-010,        0.14
,,,2.00000003e-010,       0.132
,,,2.50000003e-010,       0.124
,,,3.00000004e-010,       0.124
,,,3.50000005e-010,       0.124
,,,4.00000005e-010,       0.144
,,,4.50000006e-010,        0.12
,,,5.00000007e-010,       0.124
,,,5.50000007e-010,       0.112
,,,6.00000008e-010,        0.12
,,,6.50000009e-010,       0.116
,,,7.00000009e-010,        0.12
,,,7.5000001e-010,       0.116
,,,8.00000011e-010,       0.104
,,,8.50000011e-010,         0.1
,,,9.00000012e-010,       0.104
,,,9.50000013e-010,       0.084
,,,1.00000001e-009,       0.084
,,,1.05000001e-009,       0.068
,,,1.10000001e-009,       0.076
,,,1.15000002e-009,       0.068
,,,1.20000002e-009,       0.056
,,,1.25000002e-009,       0.048
,,,1.30000002e-009,        0.04
,,,1.35000002e-009,       0.032
,,,1.40000002e-009,       0.028
,,,1.45000002e-009,       0.016
,,,1.50000002e-009,       0.012
,,,1.55000002e-009,       0.004
,,,1.60000002e-009,       -0.02
,,,1.65000002e-009,      -0.028
,,,1.70000002e-009,      -0.036
,,,1.75000002e-009,      -0.036
,,,1.80000002e-009,      -0.044
,,,1.85000002e-009,      -0.044
,,,1.90000003e-009,      -0.048
,,,1.95000003e-009,       -0.06
,,,2.00000003e-009,       -0.06
,,,2.05000003e-009,       -0.08
,,,2.10000003e-009,      -0.084
,,,2.15000003e-009,      -0.092
,,,2.20000003e-009,        -0.1
,,,2.25000003e-009,      -0.112
,,,2.30000003e-009,        -0.1
,,,2.35000003e-009,      -0.112
,,,2.40000003e-009,       -0.12
,,,2.45000003e-009,      -0.116
,,,2.50000003e-009,      -0.132
,,,2.55000003e-009,       -0.12
,,,2.60000003e-009,       -0.12
,,,2.65000004e-009,      -0.124
,,,2.70000004e-009,      -0.124
,,,2.75000004e-009,      -0.124
,,,2.80000004e-009,      -0.136
,,,2.85000004e-009,      -0.132
,,,2.90000004e-009,      -0.124
,,,2.95000004e-009,      -0.124
,,,3.00000004e-009,      -0.124
,,,3.05000004e-009,       -0.12
,,,3.10000004e-009,      -0.124
,,,3.15000004e-009,       -0.12
,,,3.20000004e-009,      -0.124
,,,3.25000004e-009,      -0.104
,,,3.30000004e-009,      -0.104
,,,3.35000004e-009,      -0.096
,,,3.40000005e-009,      -0.096
,,,3.45000005e-009,      -0.088
,,,3.50000005e-009,       -0.08
,,,3.55000005e-009,       -0.08
,,,3.60000005e-009,       -0.06
,,,3.65000005e-009,       -0.06
,,,3.70000005e-009,      -0.048
,,,3.75000005e-009,      -0.044
,,,3.80000005e-009,      -0.036
,,,3.85000005e-009,      -0.032
,,,3.90000005e-009,       -0.02
,,,3.95000005e-009,      -0.012
,,,4.00000005e-009,      -0.012
,,,4.05000005e-009,           0
,,,4.10000005e-009,        0.02
,,,4.15000006e-009,        0.02
,,,4.20000006e-009,       0.032
,,,4.25000006e-009,       0.028
,,,4.30000006e-009,       0.032
,,,4.35000006e-009,       0.048
,,,4.40000006e-009,       0.064
,,,4.45000006e-009,       0.064
,,,4.50000006e-009,       0.072
,,,4.55000006e-009,       0.068
,,,4.60000006e-009,       0.084
,,,4.65000006e-009,         0.1
,,,4.70000006e-009,       0.092
,,,4.75000006e-009,       0.112
,,,4.80000006e-009,       0.108
,,,4.85000006e-009,       0.116
,,,4.90000007e-009,       0.116
,,,4.95000007e-009,       0.128
,,,5.00000007e-009,        0.12
,,,5.05000007e-009,        0.12
,,,5.10000007e-009,       0.124
,,,5.15000007e-009,       0.124
,,,5.20000007e-009,       0.132
,,,5.25000007e-009,        0.12
,,,5.30000007e-009,       0.128
,,,5.35000007e-009,       0.112
,,,5.40000007e-009,       0.124
,,,5.45000007e-009,       0.124
,,,5.50000007e-009,       0.124
,,,5.55000007e-009,        0.12
,,,5.60000007e-009,       0.112
,,,5.65000008e-009,        0.12
,,,5.70000008e-009,       0.124
,,,5.75000008e-009,       0.108
,,,5.80000008e-009,       0.104
,,,5.85000008e-009,         0.1
,,,5.90000008e-009,       0.088
,,,5.95000008e-009,        0.08
,,,6.00000008e-009,       0.084
,,,6.05000008e-009,       0.084
,,,6.10000008e-009,        0.06
,,,6.15000008e-009,       0.044
,,,6.20000008e-009,       0.056
,,,6.25000008e-009,        0.04
,,,6.30000008e-009,        0.04
,,,6.35000008e-009,       0.028
,,,6.40000009e-009,        0.02
,,,6.45000009e-009,       0.008
,,,6.50000009e-009,       0.004
,,,6.55000009e-009,      -0.008
,,,6.60000009e-009,      -0.012
,,,6.65000009e-009,      -0.012
,,,6.70000009e-009,      -0.024
,,,6.75000009e-009,      -0.032
,,,6.80000009e-009,       -0.04
,,,6.85000009e-009,      -0.052
,,,6.90000009e-009,      -0.052
,,,6.95000009e-009,      -0.064
,,,7.00000009e-009,      -0.076
,,,7.05000009e-009,      -0.076
,,,7.10000009e-009,       -0.08
,,,7.1500001e-009,      -0.084
,,,7.2000001e-009,      -0.096
,,,7.2500001e-009,      -0.104
,,,7.3000001e-009,      -0.108
,,,7.3500001e-009,      -0.088
,,,7.4000001e-009,      -0.104
,,,7.4500001e-009,      -0.108
,,,7.5000001e-009,       -0.12
,,,7.5500001e-009,       -0.12
,,,7.6000001e-009,      -0.132
,,,7.6500001e-009,      -0.128
,,,7.7000001e-009,      -0.124
,,,7.7500001e-009,      -0.128
,,,7.8000001e-009,       -0.12
,,,7.8500001e-009,      -0.124
,,,7.90000011e-009,      -0.132
,,,7.95000011e-009,       -0.12
,,,8.00000011e-009,      -0.124
,,,8.05000011e-009,      -0.124
,,,8.10000011e-009,      -0.116
,,,8.15000011e-009,      -0.104
,,,8.20000011e-009,      -0.112
,,,8.25000011e-009,      -0.108
,,,8.30000011e-009,      -0.112
,,,8.35000011e-009,      -0.104
,,,8.40000011e-009,      -0.096
,,,8.45000011e-009,      -0.092
,,,8.50000011e-009,      -0.076
,,,8.55000011e-009,      -0.064
,,,8.60000011e-009,      -0.072
,,,8.65000012e-009,      -0.068
,,,8.70000012e-009,      -0.056
,,,8.75000012e-009,      -0.048
,,,8.80000012e-009,      -0.044
,,,8.85000012e-009,      -0.024
,,,8.90000012e-009,      -0.024
,,,8.95000012e-009,      -0.012
,,,9.00000012e-009,      -0.004
,,,9.05000012e-009,      -0.004
,,,9.10000012e-009,           0
,,,9.15000012e-009,       0.024
,,,9.20000012e-009,       0.028
,,,9.25000012e-009,        0.04
,,,9.30000012e-009,       0.052
,,,9.35000012e-009,       0.052
,,,9.40000013e-009,       0.064
,,,9.45000013e-009,        0.06
,,,9.50000013e-009,       0.068
,,,9.55000013e-009,       0.064
,,,9.60000013e-009,       0.084
,,,9.65000013e-009,       0.104
,,,9.70000013e-009,       0.096
,,,9.75000013e-009,         0.1
,,,9.80000013e-009,       0.104
,,,9.85000013e-009,       0.112
,,,9.90000013e-009,       0.108
,,,9.95000013e-009,       0.116
,,,1.00000001e-008,        0.12
,,,1.00500001e-008,       0.128
,,,1.01000001e-008,       0.136
,,,1.01500001e-008,        0.12
,,,1.02000001e-008,       0.124
,,,1.02500001e-008,       0.124
,,,1.03000001e-008,       0.132
,,,1.03500001e-008,       0.124
,,,1.04000001e-008,       0.136
,,,1.04500001e-008,       0.132
,,,1.05000001e-008,       0.136
,,,1.05500001e-008,       0.128
,,,1.06000001e-008,       0.108
,,,1.06500001e-008,       0.112
,,,1.07000001e-008,       0.108
,,,1.07500001e-008,       0.108
,,,1.08000001e-008,       0.112
,,,1.08500001e-008,       0.096
,,,1.09000001e-008,       0.088
,,,1.09500001e-008,       0.088
,,,1.10000001e-008,         0.1
,,,1.10500001e-008,       0.068
,,,1.11000001e-008,       0.064
,,,1.11500001e-008,       0.052
,,,1.12000001e-008,       0.044
,,,1.12500002e-008,        0.04
,,,1.13000002e-008,       0.036
,,,1.13500002e-008,       0.036
,,,1.14000002e-008,       0.016
,,,1.14500002e-008,       0.008
,,,1.15000002e-008,       0.008
,,,1.15500002e-008,       0.004
,,,1.16000002e-008,      -0.008
,,,1.16500002e-008,      -0.012
,,,1.17000002e-008,       -0.02
,,,1.17500002e-008,      -0.036
,,,1.18000002e-008,      -0.056
,,,1.18500002e-008,      -0.044
,,,1.19000002e-008,      -0.048
,,,1.19500002e-008,      -0.064
,,,1.20000002e-008,       -0.08
,,,1.20500002e-008,      -0.076
,,,1.21000002e-008,       -0.08
,,,1.21500002e-008,       -0.08
,,,1.22000002e-008,      -0.092
,,,1.22500002e-008,      -0.096
,,,1.23000002e-008,        -0.1
,,,1.23500002e-008,        -0.1
,,,1.24000002e-008,      -0.108
,,,1.24500002e-008,      -0.124
,,,1.25000002e-008,      -0.116
,,,1.25500002e-008,      -0.128
,,,1.26000002e-008,      -0.128
,,,1.26500002e-008,       -0.14
,,,1.27000002e-008,      -0.136
,,,1.27500002e-008,      -0.124
,,,1.28000002e-008,      -0.132
,,,1.28500002e-008,      -0.136
,,,1.29000002e-008,      -0.128
,,,1.29500002e-008,       -0.12
,,,1.30000002e-008,       -0.12
,,,1.30500002e-008,      -0.116
,,,1.31000002e-008,       -0.12
,,,1.31500002e-008,       -0.12
,,,1.32000002e-008,      -0.116
,,,1.32500002e-008,      -0.104
,,,1.33000002e-008,      -0.092
,,,1.33500002e-008,      -0.104
,,,1.34000002e-008,      -0.092
,,,1.34500002e-008,       -0.08
,,,1.35000002e-008,      -0.088
,,,1.35500002e-008,      -0.068
,,,1.36000002e-008,      -0.072
,,,1.36500002e-008,      -0.048
,,,1.37000002e-008,      -0.052
,,,1.37500002e-008,      -0.048
,,,1.38000002e-008,      -0.044
,,,1.38500002e-008,      -0.028
,,,1.39000002e-008,      -0.012
,,,1.39500002e-008,      -0.016
,,,1.40000002e-008,      -0.012
,,,1.40500002e-008,      -0.004
,,,1.41000002e-008,       0.008
,,,1.41500002e-008,       0.024
,,,1.42000002e-008,        0.04
,,,1.42500002e-008,       0.032
,,,1.43000002e-008,       0.036
,,,1.43500002e-008,       0.056
,,,1.44000002e-008,       0.052
,,,1.44500002e-008,        0.06
,,,1.45000002e-008,        0.08
