GUI_pyQt/FPGA Testing/Power Levels/FPGA_output_test_data/FPGA_output_10MHz.csv

"Record Length",2000,"Points",-6.06400008e-007,      -0.024
"Sample Interval",4.00000005e-010,s,-6.06000008e-007,      -0.068
"Trigger Point",1516,"Samples",-6.05600008e-007,      -0.044
"Trigger Time",3.87500089e-011,s,-6.05200008e-007,      -0.016
"",,,-6.04800008e-007,      -0.036
"Horizontal Offset",-6.06400008e-007,s,-6.04400008e-007,      -0.068
,,,-6.04000008e-007,      -0.028
,,,-6.03600008e-007,      -0.004
,,,-6.03200008e-007,      -0.036
,,,-6.02800008e-007,      -0.028
,,,-6.02400008e-007,      -0.012
,,,-6.02000008e-007,      -0.012
,,,-6.01600008e-007,      -0.036
,,,-6.01200008e-007,      -0.008
,,,-6.00800008e-007,       0.024
,,,-6.00400008e-007,      -0.004
,,,-6.00000008e-007,      -0.008
,,,-5.99600008e-007,        0.02
,,,-5.99200008e-007,       0.008
,,,-5.98800008e-007,       -0.02
,,,-5.98400008e-007,       0.004
,,,-5.98000008e-007,       0.028
,,,-5.97600008e-007,       0.008
,,,-5.97200008e-007,       0.016
,,,-5.96800008e-007,       0.036
,,,-5.96400008e-007,       0.044
,,,-5.96000008e-007,       0.008
,,,-5.95600008e-007,       0.044
,,,-5.95200008e-007,       0.052
,,,-5.94800008e-007,       0.048
,,,-5.94400008e-007,       0.036
,,,-5.94000008e-007,       0.056
,,,-5.93600008e-007,       0.068
,,,-5.93200008e-007,       0.044
,,,-5.92800008e-007,       0.064
,,,-5.92400008e-007,        0.06
,,,-5.92000008e-007,       0.076
,,,-5.91600008e-007,       0.052
,,,-5.91200008e-007,       0.076
,,,-5.90800008e-007,       0.088
,,,-5.90400008e-007,       0.076
,,,-5.90000008e-007,       0.076
,,,-5.89600008e-007,       0.084
,,,-5.89200008e-007,       0.088
,,,-5.88800008e-007,       0.072
,,,-5.88400008e-007,       0.092
,,,-5.88000008e-007,       0.084
,,,-5.87600008e-007,         0.1
,,,-5.87200008e-007,       0.096
,,,-5.86800008e-007,         0.1
,,,-5.86400008e-007,       0.108
,,,-5.86000008e-007,       0.088
,,,-5.85600008e-007,       0.116
,,,-5.85200008e-007,       0.104
,,,-5.84800008e-007,         0.1
,,,-5.84400008e-007,       0.104
,,,-5.84000008e-007,       0.108
,,,-5.83600008e-007,       0.112
,,,-5.83200008e-007,       0.112
,,,-5.82800008e-007,       0.132
,,,-5.82400008e-007,        0.12
,,,-5.82000008e-007,        0.12
,,,-5.81600008e-007,       0.116
,,,-5.81200008e-007,       0.128
,,,-5.80800008e-007,       0.132
,,,-5.80400008e-007,       0.116
,,,-5.80000008e-007,       0.136
,,,-5.79600008e-007,       0.144
,,,-5.79200008e-007,        0.12
,,,-5.78800008e-007,        0.12
,,,-5.78400008e-007,       0.132
,,,-5.78000008e-007,       0.124
,,,-5.77600008e-007,       0.136
,,,-5.77200008e-007,       0.132
,,,-5.76800008e-007,       0.132
,,,-5.76400008e-007,       0.128
,,,-5.76000008e-007,       0.124
,,,-5.75600008e-007,        0.14
,,,-5.75200008e-007,       0.136
,,,-5.74800008e-007,       0.132
,,,-5.74400008e-007,        0.12
,,,-5.74000008e-007,       0.132
,,,-5.73600008e-007,       0.124
,,,-5.73200008e-007,        0.12
,,,-5.72800008e-007,       0.136
,,,-5.72400008e-007,        0.12
,,,-5.72000008e-007,        0.14
,,,-5.71600008e-007,       0.124
,,,-5.71200008e-007,       0.136
,,,-5.70800008e-007,        0.12
,,,-5.70400008e-007,        0.12
,,,-5.70000008e-007,       0.132
,,,-5.69600008e-007,       0.128
,,,-5.69200008e-007,       0.128
,,,-5.68800008e-007,       0.112
,,,-5.68400008e-007,       0.124
,,,-5.68000008e-007,       0.124
,,,-5.67600008e-007,       0.116
,,,-5.67200008e-007,        0.12
,,,-5.66800008e-007,       0.108
,,,-5.66400008e-007,       0.124
,,,-5.66000008e-007,       0.088
,,,-5.65600008e-007,       0.124
,,,-5.65200008e-007,       0.112
,,,-5.64800008e-007,       0.112
,,,-5.64400008e-007,       0.096
,,,-5.64000008e-007,       0.104
,,,-5.63600008e-007,         0.1
,,,-5.63200008e-007,       0.084
,,,-5.62800008e-007,       0.096
,,,-5.62400008e-007,       0.088
,,,-5.62000008e-007,       0.096
,,,-5.61600007e-007,       0.072
,,,-5.61200007e-007,        0.08
,,,-5.60800007e-007,       0.088
,,,-5.60400007e-007,       0.064
,,,-5.60000007e-007,       0.084
,,,-5.59600007e-007,       0.076
,,,-5.59200007e-007,       0.068
,,,-5.58800007e-007,        0.06
,,,-5.58400007e-007,       0.076
,,,-5.58000007e-007,       0.072
,,,-5.57600007e-007,        0.06
,,,-5.57200007e-007,       0.048
,,,-5.56800007e-007,       0.044
,,,-5.56400007e-007,       0.056
,,,-5.56000007e-007,       0.024
,,,-5.55600007e-007,       0.052
,,,-5.55200007e-007,       0.056
,,,-5.54800007e-007,       0.036
,,,-5.54400007e-007,       0.024
,,,-5.54000007e-007,       0.036
,,,-5.53600007e-007,       0.028
,,,-5.53200007e-007,       0.008
,,,-5.52800007e-007,       0.012
,,,-5.52400007e-007,       0.024
,,,-5.52000007e-007,       0.024
,,,-5.51600007e-007,      -0.024
,,,-5.51200007e-007,       0.004
,,,-5.50800007e-007,       0.016
,,,-5.50400007e-007,      -0.012
,,,-5.50000007e-007,       -0.02
,,,-5.49600007e-007,           0
,,,-5.49200007e-007,           0
,,,-5.48800007e-007,      -0.036
,,,-5.48400007e-007,      -0.008
,,,-5.48000007e-007,           0
,,,-5.47600007e-007,      -0.024
,,,-5.47200007e-007,      -0.048
,,,-5.46800007e-007,      -0.012
,,,-5.46400007e-007,      -0.012
,,,-5.46000007e-007,       -0.06
,,,-5.45600007e-007,      -0.044
,,,-5.45200007e-007,      -0.036
,,,-5.44800007e-007,      -0.052
,,,-5.44400007e-007,      -0.076
,,,-5.44000007e-007,       -0.04
,,,-5.43600007e-007,      -0.032
,,,-5.43200007e-007,      -0.072
,,,-5.42800007e-007,      -0.068
,,,-5.42400007e-007,      -0.044
,,,-5.42000007e-007,      -0.064
,,,-5.41600007e-007,      -0.096
,,,-5.41200007e-007,      -0.064
,,,-5.40800007e-007,      -0.064
,,,-5.40400007e-007,      -0.096
,,,-5.40000007e-007,      -0.088
,,,-5.39600007e-007,      -0.072
,,,-5.39200007e-007,      -0.072
,,,-5.38800007e-007,      -0.116
,,,-5.38400007e-007,      -0.092
,,,-5.38000007e-007,      -0.072
,,,-5.37600007e-007,      -0.104
,,,-5.37200007e-007,      -0.124
,,,-5.36800007e-007,      -0.084
,,,-5.36400007e-007,      -0.084
,,,-5.36000007e-007,      -0.144
,,,-5.35600007e-007,      -0.104
,,,-5.35200007e-007,      -0.072
,,,-5.34800007e-007,      -0.116
,,,-5.34400007e-007,      -0.144
,,,-5.34000007e-007,        -0.1
,,,-5.33600007e-007,      -0.084
,,,-5.33200007e-007,      -0.128
,,,-5.32800007e-007,      -0.124
,,,-5.32400007e-007,      -0.084
,,,-5.32000007e-007,      -0.116
,,,-5.31600007e-007,      -0.164
,,,-5.31200007e-007,      -0.116
,,,-5.30800007e-007,      -0.088
,,,-5.30400007e-007,      -0.152
,,,-5.30000007e-007,      -0.156
,,,-5.29600007e-007,      -0.096
,,,-5.29200007e-007,      -0.108
,,,-5.28800007e-007,      -0.168
,,,-5.28400007e-007,      -0.128
,,,-5.28000007e-007,        -0.1
,,,-5.27600007e-007,      -0.144
,,,-5.27200007e-007,      -0.144
,,,-5.26800007e-007,      -0.112
,,,-5.26400007e-007,      -0.104
,,,-5.26000007e-007,      -0.164
,,,-5.25600007e-007,      -0.144
,,,-5.25200007e-007,      -0.104
,,,-5.24800007e-007,      -0.128
,,,-5.24400007e-007,      -0.172
,,,-5.24000007e-007,      -0.128
,,,-5.23600007e-007,      -0.104
,,,-5.23200007e-007,      -0.152
,,,-5.22800007e-007,      -0.144
,,,-5.22400007e-007,        -0.1
,,,-5.22000007e-007,      -0.128
,,,-5.21600007e-007,      -0.156
,,,-5.21200007e-007,      -0.116
,,,-5.20800007e-007,      -0.096
,,,-5.20400007e-007,      -0.144
,,,-5.20000007e-007,       -0.16
,,,-5.19600007e-007,      -0.096
,,,-5.19200007e-007,      -0.112
,,,-5.18800007e-007,      -0.148
,,,-5.18400007e-007,      -0.116
,,,-5.18000007e-007,      -0.084
,,,-5.17600007e-007,      -0.132
,,,-5.17200007e-007,      -0.148
,,,-5.16800007e-007,      -0.104
,,,-5.16400007e-007,      -0.104
,,,-5.16000007e-007,      -0.136
,,,-5.15600007e-007,      -0.124
,,,-5.15200007e-007,       -0.08
,,,-5.14800007e-007,      -0.108
,,,-5.14400007e-007,      -0.136
,,,-5.14000007e-007,      -0.084
,,,-5.13600007e-007,      -0.072
,,,-5.13200007e-007,      -0.124
,,,-5.12800007e-007,        -0.1
,,,-5.12400007e-007,      -0.064
,,,-5.12000007e-007,      -0.088
,,,-5.11600007e-007,      -0.116
,,,-5.11200007e-007,      -0.088
,,,-5.10800007e-007,      -0.052
,,,-5.10400007e-007,      -0.096
,,,-5.10000007e-007,      -0.104
,,,-5.09600007e-007,      -0.056
,,,-5.09200007e-007,      -0.064
,,,-5.08800007e-007,        -0.1
,,,-5.08400007e-007,       -0.06
,,,-5.08000007e-007,      -0.036
,,,-5.07600007e-007,      -0.068
,,,-5.07200007e-007,      -0.076
,,,-5.06800007e-007,      -0.056
,,,-5.06400007e-007,      -0.032
,,,-5.06000007e-007,       -0.06
,,,-5.05600007e-007,      -0.056
,,,-5.05200007e-007,      -0.012
,,,-5.04800007e-007,      -0.044
,,,-5.04400007e-007,      -0.068
,,,-5.04000007e-007,       -0.02
,,,-5.03600007e-007,      -0.016
,,,-5.03200007e-007,      -0.048
,,,-5.02800007e-007,      -0.028
,,,-5.02400007e-007,      -0.012
,,,-5.02000007e-007,      -0.008
,,,-5.01600007e-007,       -0.04
,,,-5.01200007e-007,      -0.008
,,,-5.00800007e-007,       0.024
,,,-5.00400007e-007,      -0.008
,,,-5.00000007e-007,      -0.012
,,,-4.99600007e-007,       0.028
,,,-4.99200007e-007,       0.024
,,,-4.98800007e-007,      -0.016
,,,-4.98400007e-007,       0.012
,,,-4.98000007e-007,       0.028
,,,-4.97600007e-007,       0.016
,,,-4.97200007e-007,        0.02
,,,-4.96800007e-007,       0.032
,,,-4.96400007e-007,       0.052
,,,-4.96000007e-007,       0.016
,,,-4.95600007e-007,        0.04
,,,-4.95200007e-007,       0.052
,,,-4.94800007e-007,       0.048
,,,-4.94400007e-007,       0.036
,,,-4.94000007e-007,        0.06
,,,-4.93600007e-007,        0.06
,,,-4.93200007e-007,       0.052
,,,-4.92800007e-007,       0.076
,,,-4.92400007e-007,        0.06
,,,-4.92000007e-007,       0.068
,,,-4.91600007e-007,       0.052
,,,-4.91200007e-007,       0.076
,,,-4.90800007e-007,       0.084
,,,-4.90400007e-007,       0.068
,,,-4.90000007e-007,       0.072
,,,-4.89600007e-007,        0.08
,,,-4.89200007e-007,       0.084
,,,-4.88800007e-007,       0.076
,,,-4.88400007e-007,       0.096
,,,-4.88000007e-007,       0.088
,,,-4.87600007e-007,       0.092
,,,-4.87200007e-007,       0.092
,,,-4.86800006e-007,       0.104
,,,-4.86400006e-007,       0.116
,,,-4.86000006e-007,       0.088
,,,-4.85600006e-007,       0.104
,,,-4.85200006e-007,         0.1
,,,-4.84800006e-007,       0.108
,,,-4.84400006e-007,       0.104
,,,-4.84000006e-007,       0.112
,,,-4.83600006e-007,        0.12
,,,-4.83200006e-007,       0.108
,,,-4.82800006e-007,       0.124
,,,-4.82400006e-007,       0.112
,,,-4.82000006e-007,        0.12
,,,-4.81600006e-007,       0.108
,,,-4.81200006e-007,       0.124
,,,-4.80800006e-007,       0.132
,,,-4.80400006e-007,       0.116
,,,-4.80000006e-007,       0.136
,,,-4.79600006e-007,       0.124
,,,-4.79200006e-007,        0.12
,,,-4.78800006e-007,        0.12
,,,-4.78400006e-007,        0.14
,,,-4.78000006e-007,       0.128
,,,-4.77600006e-007,       0.128
,,,-4.77200006e-007,       0.136
,,,-4.76800006e-007,       0.128
,,,-4.76400006e-007,       0.128
,,,-4.76000006e-007,       0.124
,,,-4.75600006e-007,       0.148
,,,-4.75200006e-007,       0.132
,,,-4.74800006e-007,        0.12
,,,-4.74400006e-007,        0.14
,,,-4.74000006e-007,       0.136
,,,-4.73600006e-007,       0.132
,,,-4.73200006e-007,       0.124
,,,-4.72800006e-007,       0.144
,,,-4.72400006e-007,       0.132
,,,-4.72000006e-007,       0.132
,,,-4.71600006e-007,       0.132
,,,-4.71200006e-007,       0.132
,,,-4.70800006e-007,       0.124
,,,-4.70400006e-007,       0.116
,,,-4.70000006e-007,       0.132
,,,-4.69600006e-007,        0.12
,,,-4.69200006e-007,       0.128
,,,-4.68800006e-007,       0.096
,,,-4.68400006e-007,       0.128
,,,-4.68000006e-007,       0.116
,,,-4.67600006e-007,       0.116
,,,-4.67200006e-007,       0.116
,,,-4.66800006e-007,       0.124
,,,-4.66400006e-007,       0.112
,,,-4.66000006e-007,         0.1
,,,-4.65600006e-007,        0.12
,,,-4.65200006e-007,       0.104
,,,-4.64800006e-007,       0.108
,,,-4.64400006e-007,         0.1
,,,-4.64000006e-007,       0.096
,,,-4.63600006e-007,       0.104
,,,-4.63200006e-007,       0.088
,,,-4.62800006e-007,       0.112
,,,-4.62400006e-007,       0.092
,,,-4.62000006e-007,       0.092
,,,-4.61600006e-007,       0.076
,,,-4.61200006e-007,       0.096
,,,-4.60800006e-007,       0.084
,,,-4.60400006e-007,        0.06
,,,-4.60000006e-007,       0.072
,,,-4.59600006e-007,       0.076
,,,-4.59200006e-007,       0.072
,,,-4.58800006e-007,        0.06
,,,-4.58400006e-007,        0.08
,,,-4.58000006e-007,       0.056
,,,-4.57600006e-007,        0.06
,,,-4.57200006e-007,       0.048
,,,-4.56800006e-007,       0.052
,,,-4.56400006e-007,       0.064
,,,-4.56000006e-007,       0.024
,,,-4.55600006e-007,       0.064
,,,-4.55200006e-007,       0.048
,,,-4.54800006e-007,       0.032
,,,-4.54400006e-007,       0.028
,,,-4.54000006e-007,        0.04
,,,-4.53600006e-007,       0.028
,,,-4.53200006e-007,      -0.004
,,,-4.52800006e-007,       0.016
,,,-4.52400006e-007,       0.032
,,,-4.52000006e-007,       0.032
,,,-4.51600006e-007,      -0.016
,,,-4.51200006e-007,       0.008
,,,-4.50800006e-007,       0.024
,,,-4.50400006e-007,      -0.012
,,,-4.50000006e-007,           0
,,,-4.49600006e-007,       0.008
,,,-4.49200006e-007,       0.012
,,,-4.48800006e-007,      -0.032
,,,-4.48400006e-007,      -0.016
,,,-4.48000006e-007,           0
,,,-4.47600006e-007,      -0.032
,,,-4.47200006e-007,       -0.04
,,,-4.46800006e-007,       -0.02
,,,-4.46400006e-007,      -0.004
,,,-4.46000006e-007,      -0.052
,,,-4.45600006e-007,       -0.04
,,,-4.45200006e-007,      -0.032
,,,-4.44800006e-007,      -0.052
,,,-4.44400006e-007,      -0.072
,,,-4.44000006e-007,       -0.04
,,,-4.43600006e-007,      -0.024
,,,-4.43200006e-007,      -0.084
,,,-4.42800006e-007,      -0.064
,,,-4.42400006e-007,       -0.04
,,,-4.42000006e-007,       -0.06
,,,-4.41600006e-007,      -0.088
,,,-4.41200006e-007,      -0.064
,,,-4.40800006e-007,       -0.06
,,,-4.40400006e-007,      -0.096
,,,-4.40000006e-007,        -0.1
,,,-4.39600006e-007,       -0.06
,,,-4.39200006e-007,       -0.06
,,,-4.38800006e-007,       -0.12
,,,-4.38400006e-007,      -0.096
,,,-4.38000006e-007,      -0.068
,,,-4.37600006e-007,        -0.1
,,,-4.37200006e-007,      -0.104
,,,-4.36800006e-007,      -0.084
,,,-4.36400006e-007,      -0.076
,,,-4.36000006e-007,      -0.124
,,,-4.35600006e-007,      -0.108
,,,-4.35200006e-007,      -0.088
,,,-4.34800006e-007,      -0.104
,,,-4.34400006e-007,      -0.144
,,,-4.34000006e-007,      -0.108
,,,-4.33600006e-007,      -0.088
,,,-4.33200006e-007,      -0.136
,,,-4.32800006e-007,      -0.124
,,,-4.32400006e-007,      -0.096
,,,-4.32000006e-007,      -0.116
,,,-4.31600006e-007,      -0.156
,,,-4.31200006e-007,      -0.116
,,,-4.30800006e-007,        -0.1
,,,-4.30400006e-007,       -0.14
,,,-4.30000006e-007,      -0.148
,,,-4.29600006e-007,      -0.104
,,,-4.29200006e-007,       -0.12
,,,-4.28800006e-007,      -0.172
,,,-4.28400006e-007,      -0.124
,,,-4.28000006e-007,      -0.092
,,,-4.27600006e-007,      -0.144
,,,-4.27200006e-007,      -0.148
,,,-4.26800006e-007,      -0.112
,,,-4.26400006e-007,       -0.12
,,,-4.26000006e-007,      -0.168
,,,-4.25600006e-007,      -0.136
,,,-4.25200006e-007,      -0.096
,,,-4.24800006e-007,      -0.136
,,,-4.24400006e-007,      -0.168
,,,-4.24000006e-007,      -0.116
,,,-4.23600006e-007,      -0.104
,,,-4.23200006e-007,       -0.16
,,,-4.22800006e-007,       -0.14
,,,-4.22400006e-007,        -0.1
,,,-4.22000006e-007,      -0.124
,,,-4.21600006e-007,      -0.152
,,,-4.21200006e-007,       -0.12
,,,-4.20800006e-007,      -0.092
,,,-4.20400006e-007,      -0.152
,,,-4.20000006e-007,      -0.144
,,,-4.19600006e-007,      -0.108
,,,-4.19200006e-007,      -0.104
,,,-4.18800006e-007,      -0.156
,,,-4.18400006e-007,      -0.124
,,,-4.18000006e-007,      -0.088
,,,-4.17600006e-007,      -0.128
,,,-4.17200006e-007,      -0.152
,,,-4.16800006e-007,        -0.1
,,,-4.16400006e-007,      -0.096
,,,-4.16000006e-007,      -0.136
,,,-4.15600006e-007,      -0.128
,,,-4.15200006e-007,      -0.088
,,,-4.14800006e-007,        -0.1
,,,-4.14400006e-007,       -0.14
,,,-4.14000006e-007,      -0.088
,,,-4.13600006e-007,      -0.068
,,,-4.13200006e-007,      -0.132
,,,-4.12800006e-007,      -0.096
,,,-4.12400006e-007,      -0.068
,,,-4.12000006e-007,      -0.084
,,,-4.11600005e-007,      -0.108
,,,-4.11200005e-007,      -0.088
,,,-4.10800005e-007,      -0.052
,,,-4.10400005e-007,      -0.096
,,,-4.10000005e-007,      -0.092
,,,-4.09600005e-007,      -0.052
,,,-4.09200005e-007,      -0.068
,,,-4.08800005e-007,      -0.104
,,,-4.08400005e-007,       -0.06
,,,-4.08000005e-007,      -0.032
,,,-4.07600005e-007,      -0.068
,,,-4.07200005e-007,      -0.076
,,,-4.06800005e-007,      -0.044
,,,-4.06400005e-007,      -0.028
,,,-4.06000005e-007,      -0.076
,,,-4.05600005e-007,      -0.044
,,,-4.05200005e-007,      -0.024
,,,-4.04800005e-007,      -0.036
,,,-4.04400005e-007,      -0.048
,,,-4.04000005e-007,      -0.028
,,,-4.03600005e-007,       -0.02
,,,-4.03200005e-007,      -0.052
,,,-4.02800005e-007,      -0.024
,,,-4.02400005e-007,      -0.004
,,,-4.02000005e-007,      -0.012
,,,-4.01600005e-007,      -0.028
,,,-4.01200005e-007,      -0.008
,,,-4.00800005e-007,       0.008
,,,-4.00400005e-007,      -0.016
,,,-4.00000005e-007,      -0.016
,,,-3.99600005e-007,       0.016
,,,-3.99200005e-007,       0.016
,,,-3.98800005e-007,      -0.012
,,,-3.98400005e-007,       0.016
,,,-3.98000005e-007,       0.024
,,,-3.97600005e-007,       0.008
,,,-3.97200005e-007,       0.008
,,,-3.96800005e-007,       0.028
,,,-3.96400005e-007,       0.032
,,,-3.96000005e-007,        0.02
,,,-3.95600005e-007,       0.032
,,,-3.95200005e-007,       0.052
,,,-3.94800005e-007,       0.048
,,,-3.94400005e-007,       0.028
,,,-3.94000005e-007,       0.056
,,,-3.93600005e-007,       0.072
,,,-3.93200005e-007,       0.048
,,,-3.92800005e-007,       0.064
,,,-3.92400005e-007,       0.068
,,,-3.92000005e-007,       0.072
,,,-3.91600005e-007,       0.056
,,,-3.91200005e-007,       0.076
,,,-3.90800005e-007,        0.08
,,,-3.90400005e-007,       0.072
,,,-3.90000005e-007,       0.072
,,,-3.89600005e-007,        0.08
,,,-3.89200005e-007,       0.092
,,,-3.88800005e-007,       0.076
,,,-3.88400005e-007,       0.096
,,,-3.88000005e-007,       0.104
,,,-3.87600005e-007,         0.1
,,,-3.87200005e-007,        0.08
,,,-3.86800005e-007,       0.092
,,,-3.86400005e-007,       0.112
,,,-3.86000005e-007,       0.092
,,,-3.85600005e-007,       0.112
,,,-3.85200005e-007,       0.108
,,,-3.84800005e-007,       0.108
,,,-3.84400005e-007,       0.104
,,,-3.84000005e-007,       0.116
,,,-3.83600005e-007,       0.112
,,,-3.83200005e-007,       0.112
,,,-3.82800005e-007,       0.124
,,,-3.82400005e-007,       0.108
,,,-3.82000005e-007,       0.124
,,,-3.81600005e-007,       0.116
,,,-3.81200005e-007,       0.136
,,,-3.80800005e-007,       0.136
,,,-3.80400005e-007,       0.124
,,,-3.80000005e-007,        0.12
,,,-3.79600005e-007,       0.132
,,,-3.79200005e-007,       0.132
,,,-3.78800005e-007,       0.116
,,,-3.78400005e-007,       0.136
,,,-3.78000005e-007,       0.128
,,,-3.77600005e-007,       0.144
,,,-3.77200005e-007,       0.132
,,,-3.76800005e-007,       0.128
,,,-3.76400005e-007,       0.136
,,,-3.76000005e-007,        0.12
,,,-3.75600005e-007,       0.136
,,,-3.75200005e-007,       0.128
,,,-3.74800005e-007,       0.116
,,,-3.74400005e-007,       0.124
,,,-3.74000005e-007,       0.132
,,,-3.73600005e-007,       0.128
,,,-3.73200005e-007,       0.124
,,,-3.72800005e-007,       0.136
,,,-3.72400005e-007,       0.116
,,,-3.72000005e-007,       0.148
,,,-3.71600005e-007,       0.112
,,,-3.71200005e-007,       0.136
,,,-3.70800005e-007,        0.12
,,,-3.70400005e-007,       0.108
,,,-3.70000005e-007,       0.136
,,,-3.69600005e-007,       0.124
,,,-3.69200005e-007,       0.116
,,,-3.68800005e-007,        0.12
,,,-3.68400005e-007,       0.124
,,,-3.68000005e-007,        0.12
,,,-3.67600005e-007,       0.112
,,,-3.67200005e-007,       0.116
,,,-3.66800005e-007,       0.112
,,,-3.66400005e-007,       0.124
