GUI_pyQt/FPGA Testing/Power Levels/FPGA_output_0pt5MHz.csv

"Record Length",2500,"Points",-1.51599996e-005,       0.008
"Sample Interval",7.99999977e-009,s,-1.51519996e-005,      -0.012
"Trigger Point",1895,"Samples",-1.51439996e-005,      -0.012
"Trigger Time",2.09500009e-009,s,-1.51359996e-005,       -0.02
"",,,-1.51279996e-005,           0
"Horizontal Offset",-1.51599996e-005,s,-1.51199996e-005,           0
,,,-1.51119996e-005,      -0.016
,,,-1.51039996e-005,      -0.016
,,,-1.50959996e-005,      -0.028
,,,-1.50879996e-005,      -0.008
,,,-1.50799996e-005,      -0.004
,,,-1.50719996e-005,       -0.02
,,,-1.50639996e-005,      -0.016
,,,-1.50559996e-005,      -0.016
,,,-1.50479996e-005,      -0.012
,,,-1.50399996e-005,      -0.012
,,,-1.50319996e-005,      -0.016
,,,-1.50239996e-005,      -0.024
,,,-1.50159996e-005,       -0.02
,,,-1.50079996e-005,      -0.008
,,,-1.49999996e-005,      -0.008
,,,-1.49919996e-005,      -0.024
,,,-1.49839996e-005,      -0.012
,,,-1.49759996e-005,      -0.036
,,,-1.49679996e-005,      -0.008
,,,-1.49599996e-005,      -0.016
,,,-1.49519996e-005,      -0.024
,,,-1.49439996e-005,      -0.024
,,,-1.49359996e-005,       -0.04
,,,-1.49279996e-005,      -0.012
,,,-1.49199996e-005,      -0.024
,,,-1.49119996e-005,      -0.032
,,,-1.49039996e-005,      -0.028
,,,-1.48959996e-005,      -0.048
,,,-1.48879996e-005,      -0.024
,,,-1.48799996e-005,      -0.024
,,,-1.48719996e-005,      -0.036
,,,-1.48639996e-005,      -0.032
,,,-1.48559996e-005,      -0.032
,,,-1.48479996e-005,      -0.016
,,,-1.48399996e-005,      -0.028
,,,-1.48319996e-005,      -0.036
,,,-1.48239996e-005,       -0.04
,,,-1.48159996e-005,      -0.052
,,,-1.48079996e-005,       -0.02
,,,-1.47999996e-005,      -0.036
,,,-1.47919996e-005,      -0.036
,,,-1.47839996e-005,       -0.04
,,,-1.47759996e-005,      -0.056
,,,-1.47679996e-005,      -0.036
,,,-1.47599996e-005,      -0.044
,,,-1.47519996e-005,      -0.048
,,,-1.47439996e-005,      -0.036
,,,-1.47359996e-005,      -0.068
,,,-1.47279996e-005,       -0.02
,,,-1.47199996e-005,      -0.056
,,,-1.47119996e-005,      -0.044
,,,-1.47039996e-005,      -0.032
,,,-1.46959996e-005,      -0.072
,,,-1.46879996e-005,       -0.02
,,,-1.46799996e-005,      -0.036
,,,-1.46719996e-005,      -0.052
,,,-1.46639996e-005,      -0.044
,,,-1.46559996e-005,       -0.08
,,,-1.46479996e-005,      -0.028
,,,-1.46399996e-005,      -0.056
,,,-1.46319996e-005,       -0.06
,,,-1.46239996e-005,      -0.036
,,,-1.46159996e-005,       -0.08
,,,-1.46079996e-005,      -0.032
,,,-1.45999996e-005,      -0.056
,,,-1.45919996e-005,      -0.052
,,,-1.45839996e-005,      -0.044
,,,-1.45759996e-005,      -0.092
,,,-1.45679996e-005,      -0.036
,,,-1.45599996e-005,      -0.064
,,,-1.45519996e-005,      -0.052
,,,-1.45439996e-005,      -0.044
,,,-1.45359996e-005,      -0.092
,,,-1.45279996e-005,      -0.032
,,,-1.45199996e-005,      -0.072
,,,-1.45119996e-005,      -0.064
,,,-1.45039996e-005,      -0.048
,,,-1.44959996e-005,      -0.096
,,,-1.44879996e-005,      -0.036
,,,-1.44799996e-005,      -0.072
,,,-1.44719996e-005,      -0.068
,,,-1.44639996e-005,      -0.052
,,,-1.44559996e-005,      -0.104
,,,-1.44479996e-005,      -0.032
,,,-1.44399996e-005,      -0.076
,,,-1.44319996e-005,      -0.068
,,,-1.44239996e-005,      -0.048
,,,-1.44159996e-005,      -0.096
,,,-1.44079996e-005,       -0.04
,,,-1.43999996e-005,      -0.064
,,,-1.43919996e-005,      -0.072
,,,-1.43839996e-005,       -0.04
,,,-1.43759996e-005,      -0.096
,,,-1.43679996e-005,      -0.036
,,,-1.43599996e-005,      -0.064
,,,-1.43519996e-005,      -0.056
,,,-1.43439996e-005,      -0.048
,,,-1.43359996e-005,        -0.1
,,,-1.43279996e-005,      -0.032
,,,-1.43199996e-005,      -0.072
,,,-1.43119996e-005,       -0.06
,,,-1.43039996e-005,      -0.044
,,,-1.42959996e-005,      -0.088
,,,-1.42879996e-005,      -0.028
,,,-1.42799996e-005,       -0.06
,,,-1.42719996e-005,      -0.064
,,,-1.42639996e-005,      -0.036
,,,-1.42559996e-005,      -0.096
,,,-1.42479996e-005,      -0.032
,,,-1.42399996e-005,      -0.068
,,,-1.42319996e-005,      -0.068
,,,-1.42239996e-005,      -0.036
,,,-1.42159996e-005,      -0.096
,,,-1.42079996e-005,      -0.016
,,,-1.41999996e-005,       -0.06
,,,-1.41919996e-005,      -0.048
,,,-1.41839996e-005,      -0.028
,,,-1.41759996e-005,      -0.076
,,,-1.41679996e-005,      -0.012
,,,-1.41599996e-005,      -0.044
,,,-1.41519996e-005,      -0.048
,,,-1.41439996e-005,       -0.02
,,,-1.41359996e-005,      -0.064
,,,-1.41279996e-005,      -0.008
,,,-1.41199996e-005,       -0.04
,,,-1.41119996e-005,      -0.032
,,,-1.41039996e-005,      -0.008
,,,-1.40959996e-005,      -0.068
,,,-1.40879996e-005,       0.004
,,,-1.40799996e-005,      -0.032
,,,-1.40719996e-005,      -0.028
,,,-1.40639996e-005,           0
,,,-1.40559996e-005,      -0.048
,,,-1.40479996e-005,       0.012
,,,-1.40399996e-005,       -0.02
,,,-1.40319996e-005,      -0.008
,,,-1.40239996e-005,       0.008
,,,-1.40159996e-005,      -0.044
,,,-1.40079996e-005,        0.02
,,,-1.39999996e-005,      -0.004
,,,-1.39919996e-005,      -0.004
,,,-1.39839996e-005,       0.004
,,,-1.39759996e-005,      -0.028
,,,-1.39679996e-005,       0.028
,,,-1.39599996e-005,      -0.008
,,,-1.39519996e-005,       0.012
,,,-1.39439996e-005,       0.024
,,,-1.39359996e-005,      -0.016
,,,-1.39279996e-005,        0.04
,,,-1.39199996e-005,       0.016
,,,-1.39119996e-005,        0.02
,,,-1.39039996e-005,       0.024
,,,-1.38959996e-005,       0.004
,,,-1.38879996e-005,        0.04
,,,-1.38799996e-005,        0.04
,,,-1.38719996e-005,       0.028
,,,-1.38639996e-005,       0.056
,,,-1.38559996e-005,       0.004
,,,-1.38479996e-005,       0.068
,,,-1.38399996e-005,        0.04
,,,-1.38319996e-005,       0.048
,,,-1.38239996e-005,       0.056
,,,-1.38159996e-005,       0.024
,,,-1.38079996e-005,       0.064
,,,-1.37999996e-005,       0.044
,,,-1.37919996e-005,        0.04
,,,-1.37839996e-005,       0.068
,,,-1.37759996e-005,        0.04
,,,-1.37679996e-005,       0.084
,,,-1.37599996e-005,        0.06
,,,-1.37519996e-005,       0.064
,,,-1.37439996e-005,       0.076
,,,-1.37359996e-005,       0.048
,,,-1.37279996e-005,       0.088
,,,-1.37199996e-005,       0.072
,,,-1.37119996e-005,       0.076
,,,-1.37039996e-005,       0.084
,,,-1.36959996e-005,       0.056
,,,-1.36879996e-005,       0.092
,,,-1.36799996e-005,       0.084
,,,-1.36719996e-005,       0.072
,,,-1.36639996e-005,        0.08
,,,-1.36559996e-005,       0.068
,,,-1.36479996e-005,         0.1
,,,-1.36399996e-005,       0.084
,,,-1.36319996e-005,       0.084
,,,-1.36239996e-005,       0.084
,,,-1.36159996e-005,       0.068
,,,-1.36079996e-005,       0.104
,,,-1.35999996e-005,       0.096
,,,-1.35919996e-005,       0.088
,,,-1.35839996e-005,       0.092
,,,-1.35759996e-005,        0.08
,,,-1.35679996e-005,       0.092
,,,-1.35599996e-005,       0.088
,,,-1.35519996e-005,       0.084
,,,-1.35439996e-005,       0.088
,,,-1.35359996e-005,        0.06
,,,-1.35279996e-005,       0.088
,,,-1.35199996e-005,       0.084
,,,-1.35119996e-005,       0.072
,,,-1.35039996e-005,       0.076
,,,-1.34959996e-005,       0.076
,,,-1.34879996e-005,       0.092
,,,-1.34799996e-005,       0.084
,,,-1.34719996e-005,       0.068
,,,-1.34639996e-005,        0.06
,,,-1.34559996e-005,       0.064
,,,-1.34479996e-005,       0.084
,,,-1.34399996e-005,       0.076
,,,-1.34319996e-005,       0.068
,,,-1.34239996e-005,        0.06
,,,-1.34159996e-005,       0.048
,,,-1.34079996e-005,       0.052
,,,-1.33999996e-005,       0.068
,,,-1.33919996e-005,       0.044
,,,-1.33839996e-005,       0.052
,,,-1.33759996e-005,        0.04
,,,-1.33679996e-005,       0.056
,,,-1.33599996e-005,        0.06
,,,-1.33519996e-005,       0.036
,,,-1.33439996e-005,        0.04
,,,-1.33359996e-005,       0.036
,,,-1.33279996e-005,        0.04
,,,-1.33199996e-005,       0.044
,,,-1.33119996e-005,       0.024
,,,-1.33039996e-005,       0.024
,,,-1.32959996e-005,       0.016
,,,-1.32879996e-005,       0.028
,,,-1.32799996e-005,       0.032
,,,-1.32719996e-005,       0.024
,,,-1.32639996e-005,       0.016
,,,-1.32559996e-005,       0.008
,,,-1.32479996e-005,       0.012
,,,-1.32399996e-005,       0.012
,,,-1.32319996e-005,       0.004
,,,-1.32239996e-005,      -0.004
,,,-1.32159996e-005,       0.004
,,,-1.32079996e-005,       0.012
,,,-1.31999996e-005,       0.008
,,,-1.31919996e-005,       0.012
,,,-1.31839996e-005,      -0.008
,,,-1.31759996e-005,      -0.012
,,,-1.31679996e-005,           0
,,,-1.31599996e-005,      -0.004
,,,-1.31519996e-005,      -0.008
,,,-1.31439996e-005,      -0.008
,,,-1.31359996e-005,      -0.012
,,,-1.31279996e-005,       0.004
,,,-1.31199996e-005,      -0.012
,,,-1.31119996e-005,      -0.016
,,,-1.31039996e-005,      -0.012
,,,-1.30959996e-005,       -0.02
,,,-1.30879996e-005,      -0.012
,,,-1.30799996e-005,      -0.008
,,,-1.30719996e-005,      -0.012
,,,-1.30639996e-005,       -0.02
,,,-1.30559996e-005,      -0.024
,,,-1.30479996e-005,      -0.004
,,,-1.30399996e-005,      -0.004
,,,-1.30319996e-005,      -0.012
,,,-1.30239996e-005,       -0.02
,,,-1.30159996e-005,       -0.02
,,,-1.30079996e-005,      -0.012
,,,-1.29999996e-005,      -0.016
,,,-1.29919996e-005,      -0.024
,,,-1.29839996e-005,       -0.02
,,,-1.29759996e-005,       -0.02
,,,-1.29679996e-005,      -0.016
,,,-1.29599996e-005,      -0.016
,,,-1.29519996e-005,      -0.024
,,,-1.29439996e-005,      -0.024
,,,-1.29359996e-005,      -0.032
,,,-1.29279996e-005,       -0.02
,,,-1.29199996e-005,      -0.024
,,,-1.29119996e-005,      -0.032
,,,-1.29039996e-005,      -0.024
,,,-1.28959996e-005,       -0.04
,,,-1.28879996e-005,       -0.02
,,,-1.28799996e-005,      -0.024
,,,-1.28719996e-005,      -0.028
,,,-1.28639996e-005,      -0.036
,,,-1.28559996e-005,      -0.052
,,,-1.28479996e-005,       -0.02
,,,-1.28399996e-005,      -0.028
,,,-1.28319996e-005,      -0.032
,,,-1.28239996e-005,      -0.032
,,,-1.28159996e-005,      -0.052
,,,-1.28079996e-005,       -0.02
,,,-1.27999996e-005,      -0.032
,,,-1.27919996e-005,       -0.04
,,,-1.27839996e-005,      -0.032
,,,-1.27759996e-005,       -0.06
,,,-1.27679996e-005,      -0.032
,,,-1.27599996e-005,      -0.056
,,,-1.27519996e-005,      -0.052
,,,-1.27439996e-005,      -0.036
,,,-1.27359996e-005,      -0.072
,,,-1.27279996e-005,      -0.024
,,,-1.27199996e-005,      -0.048
,,,-1.27119996e-005,       -0.06
,,,-1.27039996e-005,      -0.032
,,,-1.26959996e-005,      -0.068
,,,-1.26879996e-005,      -0.016
,,,-1.26799996e-005,       -0.06
,,,-1.26719996e-005,      -0.056
,,,-1.26639996e-005,      -0.032
,,,-1.26559996e-005,      -0.084
,,,-1.26479996e-005,      -0.028
,,,-1.26399996e-005,       -0.06
,,,-1.26319996e-005,      -0.056
,,,-1.26239996e-005,      -0.044
,,,-1.26159996e-005,      -0.088
,,,-1.26079996e-005,       -0.02
,,,-1.25999996e-005,      -0.064
,,,-1.25919996e-005,       -0.06
,,,-1.25839996e-005,      -0.044
,,,-1.25759996e-005,      -0.096
,,,-1.25679996e-005,      -0.028
,,,-1.25599996e-005,      -0.064
,,,-1.25519996e-005,      -0.068
,,,-1.25439996e-005,       -0.04
,,,-1.25359996e-005,      -0.084
,,,-1.25279996e-005,      -0.036
,,,-1.25199996e-005,      -0.056
,,,-1.25119996e-005,       -0.06
,,,-1.25039996e-005,      -0.036
,,,-1.24959996e-005,      -0.092
,,,-1.24879996e-005,      -0.028
,,,-1.24799996e-005,      -0.072
,,,-1.24719996e-005,      -0.064
,,,-1.24639996e-005,      -0.048
,,,-1.24559996e-005,      -0.088
,,,-1.24479996e-005,      -0.036
,,,-1.24399996e-005,       -0.08
,,,-1.24319996e-005,      -0.072
,,,-1.24239996e-005,      -0.048
,,,-1.24159996e-005,        -0.1
,,,-1.24079996e-005,      -0.032
,,,-1.23999996e-005,      -0.072
,,,-1.23919996e-005,      -0.068
,,,-1.23839996e-005,       -0.04
,,,-1.23759996e-005,        -0.1
,,,-1.23679997e-005,      -0.036
,,,-1.23599997e-005,      -0.064
,,,-1.23519997e-005,      -0.064
,,,-1.23439997e-005,       -0.04
,,,-1.23359997e-005,      -0.096
,,,-1.23279997e-005,      -0.036
,,,-1.23199997e-005,      -0.064
,,,-1.23119997e-005,      -0.064
,,,-1.23039997e-005,       -0.04
,,,-1.22959997e-005,      -0.096
,,,-1.22879997e-005,      -0.036
,,,-1.22799997e-005,      -0.072
,,,-1.22719997e-005,      -0.068
,,,-1.22639997e-005,      -0.028
,,,-1.22559997e-005,      -0.084
,,,-1.22479997e-005,      -0.028
,,,-1.22399997e-005,       -0.06
,,,-1.22319997e-005,      -0.052
,,,-1.22239997e-005,      -0.032
,,,-1.22159997e-005,      -0.088
,,,-1.22079997e-005,      -0.016
,,,-1.21999997e-005,       -0.06
,,,-1.21919997e-005,      -0.052
,,,-1.21839997e-005,      -0.032
,,,-1.21759997e-005,       -0.08
,,,-1.21679997e-005,      -0.024
,,,-1.21599997e-005,      -0.052
,,,-1.21519997e-005,      -0.044
,,,-1.21439997e-005,      -0.024
,,,-1.21359997e-005,       -0.08
,,,-1.21279997e-005,           0
,,,-1.21199997e-005,      -0.036
,,,-1.21119997e-005,      -0.032
,,,-1.21039997e-005,      -0.012
,,,-1.20959997e-005,      -0.072
,,,-1.20879997e-005,       0.004
,,,-1.20799997e-005,       -0.04
,,,-1.20719997e-005,      -0.032
,,,-1.20639997e-005,      -0.004
,,,-1.20559997e-005,      -0.048
,,,-1.20479997e-005,       0.008
,,,-1.20399997e-005,      -0.028
,,,-1.20319997e-005,      -0.016
,,,-1.20239997e-005,       0.008
,,,-1.20159997e-005,       -0.04
,,,-1.20079997e-005,        0.02
,,,-1.19999997e-005,      -0.008
,,,-1.19919997e-005,      -0.012
,,,-1.19839997e-005,       0.016
,,,-1.19759997e-005,      -0.032
,,,-1.19679997e-005,       0.028
,,,-1.19599997e-005,      -0.004
,,,-1.19519997e-005,      -0.004
,,,-1.19439997e-005,       0.024
,,,-1.19359997e-005,       -0.02
,,,-1.19279997e-005,       0.036
,,,-1.19199997e-005,       0.008
,,,-1.19119997e-005,       0.012
,,,-1.19039997e-005,       0.028
,,,-1.18959997e-005,       0.004
,,,-1.18879997e-005,       0.048
,,,-1.18799997e-005,       0.016
,,,-1.18719997e-005,        0.02
,,,-1.18639997e-005,       0.036
,,,-1.18559997e-005,           0
,,,-1.18479997e-005,       0.068
,,,-1.18399997e-005,       0.032
,,,-1.18319997e-005,        0.04
,,,-1.18239997e-005,       0.052
,,,-1.18159997e-005,       0.024
,,,-1.18079997e-005,       0.072
,,,-1.17999997e-005,       0.048
,,,-1.17919997e-005,       0.048
,,,-1.17839997e-005,       0.072
,,,-1.17759997e-005,       0.032
,,,-1.17679997e-005,       0.076
,,,-1.17599997e-005,        0.06
,,,-1.17519997e-005,        0.06
,,,-1.17439997e-005,       0.072
,,,-1.17359997e-005,        0.04
,,,-1.17279997e-005,       0.096
,,,-1.17199997e-005,       0.072
,,,-1.17119997e-005,       0.068
,,,-1.17039997e-005,       0.088
,,,-1.16959997e-005,        0.06
,,,-1.16879997e-005,       0.088
,,,-1.16799997e-005,       0.088
,,,-1.16719997e-005,        0.08
,,,-1.16639997e-005,        0.08
,,,-1.16559997e-005,       0.064
,,,-1.16479997e-005,       0.084
,,,-1.16399997e-005,       0.084
,,,-1.16319997e-005,       0.076
,,,-1.16239997e-005,       0.092
,,,-1.16159997e-005,       0.068
,,,-1.16079997e-005,       0.108
,,,-1.15999997e-005,       0.092
,,,-1.15919997e-005,       0.092
,,,-1.15839997e-005,       0.084
,,,-1.15759997e-005,       0.072
,,,-1.15679997e-005,       0.092
,,,-1.15599997e-005,       0.092
,,,-1.15519997e-005,       0.088
,,,-1.15439997e-005,        0.08
,,,-1.15359997e-005,       0.076
,,,-1.15279997e-005,       0.092
,,,-1.15199997e-005,       0.092
,,,-1.15119997e-005,       0.084
,,,-1.15039997e-005,       0.084
,,,-1.14959997e-005,       0.076
,,,-1.14879997e-005,       0.092
,,,-1.14799997e-005,       0.084
,,,-1.14719997e-005,       0.068
,,,-1.14639997e-005,       0.068
,,,-1.14559997e-005,       0.064
,,,-1.14479997e-005,       0.068
,,,-1.14399997e-005,       0.072
,,,-1.14319997e-005,       0.064
,,,-1.14239997e-005,        0.06
,,,-1.14159997e-005,       0.052
,,,-1.14079997e-005,       0.072
,,,-1.13999997e-005,       0.064
,,,-1.13919997e-005,       0.048
,,,-1.13839997e-005,       0.048
,,,-1.13759997e-005,       0.044
,,,-1.13679997e-005,       0.064
,,,-1.13599997e-005,       0.052
,,,-1.13519997e-005,       0.036
,,,-1.13439997e-005,       0.044
,,,-1.13359997e-005,       0.036
,,,-1.13279997e-005,       0.048
,,,-1.13199997e-005,       0.036
,,,-1.13119997e-005,        0.02
,,,-1.13039997e-005,       0.024
,,,-1.12959997e-005,        0.02
,,,-1.12879997e-005,        0.02
,,,-1.12799997e-005,       0.036
,,,-1.12719997e-005,       0.012
,,,-1.12639997e-005,       0.012
,,,-1.12559997e-005,        0.02
,,,-1.12479997e-005,        0.02
,,,-1.12399997e-005,       0.016
,,,-1.12319997e-005,       0.008
,,,-1.12239997e-005,       0.012
,,,-1.12159997e-005,           0
,,,-1.12079997e-005,        0.02
,,,-1.11999997e-005,       0.012
,,,-1.11919997e-005,           0
,,,-1.11839997e-005,      -0.004
,,,-1.11759997e-005,      -0.008
,,,-1.11679997e-005,           0
,,,-1.11599997e-005,       0.008
,,,-1.11519997e-005,           0
,,,-1.11439997e-005,      -0.008
,,,-1.11359997e-005,      -0.016
,,,-1.11279997e-005,           0
,,,-1.11199997e-005,      -0.012
,,,-1.11119997e-005,       -0.02
,,,-1.11039997e-005,      -0.008
,,,-1.10959997e-005,       -0.02
,,,-1.10879997e-005,      -0.008
,,,-1.10799997e-005,      -0.004
,,,-1.10719997e-005,       -0.02
,,,-1.10639997e-005,       -0.02
,,,-1.10559997e-005,       -0.02
,,,-1.10479997e-005,      -0.008
,,,-1.10399997e-005,      -0.004
,,,-1.10319997e-005,      -0.016
,,,-1.10239997e-005,      -0.024
,,,-1.10159997e-005,      -0.028
,,,-1.10079997e-005,      -0.004
,,,-1.09999997e-005,      -0.012
,,,-1.09919997e-005,      -0.024
,,,-1.09839997e-005,      -0.024
,,,-1.09759997e-005,      -0.036
,,,-1.09679997e-005,      -0.008
,,,-1.09599997e-005,      -0.024
,,,-1.09519997e-005,       -0.02
,,,-1.09439997e-005,       -0.02
,,,-1.09359997e-005,       -0.04
,,,-1.09279997e-005,      -0.016
,,,-1.09199997e-005,      -0.028
,,,-1.09119997e-005,      -0.032
,,,-1.09039997e-005,      -0.024
,,,-1.08959997e-005,      -0.032
,,,-1.08879997e-005,      -0.016
,,,-1.08799997e-005,      -0.028
,,,-1.08719997e-005,      -0.032
,,,-1.08639997e-005,      -0.028
,,,-1.08559997e-005,      -0.056
,,,-1.08479997e-005,      -0.028
,,,-1.08399997e-005,      -0.036
,,,-1.08319997e-005,      -0.036
,,,-1.08239997e-005,      -0.032
,,,-1.08159997e-005,      -0.056
,,,-1.08079997e-005,      -0.008
,,,-1.07999997e-005,       -0.04
,,,-1.07919997e-005,      -0.044
,,,-1.07839997e-005,      -0.036
,,,-1.07759997e-005,       -0.06
,,,-1.07679997e-005,       -0.02
,,,-1.07599997e-005,      -0.028
,,,-1.07519997e-005,      -0.048
,,,-1.07439997e-005,       -0.04
,,,-1.07359997e-005,      -0.072
,,,-1.07279997e-005,      -0.024
,,,-1.07199997e-005,      -0.048
,,,-1.07119997e-005,      -0.044
,,,-1.07039997e-005,      -0.036
,,,-1.06959997e-005,       -0.08
,,,-1.06879997e-005,      -0.036
,,,-1.06799997e-005,      -0.052
,,,-1.06719997e-005,      -0.056
,,,-1.06639997e-005,      -0.036
,,,-1.06559997e-005,       -0.08
,,,-1.06479997e-005,      -0.024
,,,-1.06399997e-005,      -0.052
,,,-1.06319997e-005,      -0.056
,,,-1.06239997e-005,      -0.036
,,,-1.06159997e-005,      -0.088
,,,-1.06079997e-005,      -0.028
,,,-1.05999997e-005,      -0.068
,,,-1.05919997e-005,       -0.06
,,,-1.05839997e-005,      -0.052
,,,-1.05759997e-005,      -0.092
,,,-1.05679997e-005,      -0.036
,,,-1.05599997e-005,       -0.06
,,,-1.05519997e-005,      -0.068
,,,-1.05439997e-005,      -0.052
,,,-1.05359997e-005,      -0.096
,,,-1.05279997e-005,      -0.032
,,,-1.05199997e-005,      -0.072
,,,-1.05119997e-005,      -0.068
,,,-1.05039997e-005,      -0.048
,,,-1.04959997e-005,      -0.096
,,,-1.04879997e-005,      -0.032
,,,-1.04799997e-005,      -0.068
,,,-1.04719997e-005,       -0.06
,,,-1.04639997e-005,      -0.052
,,,-1.04559997e-005,      -0.092
,,,-1.04479997e-005,       -0.04
,,,-1.04399997e-005,       -0.08
,,,-1.04319997e-005,      -0.072
,,,-1.04239997e-005,       -0.04
,,,-1.04159997e-005,      -0.104
,,,-1.04079997e-005,      -0.028
,,,-1.03999997e-005,      -0.076
,,,-1.03919997e-005,      -0.068
,,,-1.03839997e-005,      -0.036
,,,-1.03759997e-005,        -0.1
,,,-1.03679997e-005,      -0.028
,,,-1.03599997e-005,      -0.072
