GUI_pyQt/FPGA Testing/Power Levels/scope_test_1.csv

"Record Length",500,"Points",-3.03200004e-007,     -0.0032
"Sample Interval",8.00000011e-010,s,-3.02400004e-007,     -0.0024
"Trigger Point",379,"Samples",-3.01600004e-007,      0.0016
"Trigger Time",3.52000009e-010,s,-3.00800004e-007,      0.0032
"",,,-3.00000004e-007,      0.0056
"Horizontal Offset",-3.03200004e-007,s,-2.99200004e-007,      0.0088
,,,-2.98400004e-007,      0.0112
,,,-2.97600004e-007,      0.0144
,,,-2.96800004e-007,      0.0168
,,,-2.96000004e-007,      0.0168
,,,-2.95200004e-007,      0.0192
,,,-2.94400004e-007,      0.0224
,,,-2.93600004e-007,      0.0248
,,,-2.92800004e-007,      0.0272
,,,-2.92000004e-007,       0.028
,,,-2.91200004e-007,      0.0304
,,,-2.90400004e-007,      0.0328
,,,-2.89600004e-007,      0.0344
,,,-2.88800004e-007,      0.0368
,,,-2.88000004e-007,      0.0376
,,,-2.87200004e-007,        0.04
,,,-2.86400004e-007,      0.0416
,,,-2.85600004e-007,      0.0416
,,,-2.84800004e-007,      0.0416
,,,-2.84000004e-007,      0.0432
,,,-2.83200004e-007,      0.0464
,,,-2.82400004e-007,      0.0448
,,,-2.81600004e-007,      0.0464
,,,-2.80800004e-007,      0.0464
,,,-2.80000004e-007,      0.0464
,,,-2.79200004e-007,      0.0456
,,,-2.78400004e-007,       0.048
,,,-2.77600004e-007,      0.0448
,,,-2.76800004e-007,      0.0464
,,,-2.76000004e-007,      0.0448
,,,-2.75200004e-007,      0.0456
,,,-2.74400004e-007,      0.0464
,,,-2.73600004e-007,      0.0448
,,,-2.72800004e-007,       0.044
,,,-2.72000004e-007,      0.0432
,,,-2.71200004e-007,      0.0432
,,,-2.70400004e-007,        0.04
,,,-2.69600004e-007,        0.04
,,,-2.68800004e-007,        0.04
,,,-2.68000004e-007,      0.0352
,,,-2.67200004e-007,      0.0368
,,,-2.66400004e-007,      0.0344
,,,-2.65600004e-007,      0.0336
,,,-2.64800004e-007,      0.0328
,,,-2.64000004e-007,       0.028
,,,-2.63200004e-007,      0.0264
,,,-2.62400004e-007,       0.024
,,,-2.61600003e-007,      0.0224
,,,-2.60800003e-007,      0.0216
,,,-2.60000003e-007,      0.0184
,,,-2.59200003e-007,      0.0184
,,,-2.58400003e-007,      0.0128
,,,-2.57600003e-007,      0.0128
,,,-2.56800003e-007,      0.0096
,,,-2.56000003e-007,       0.008
,,,-2.55200003e-007,      0.0008
,,,-2.54400003e-007,      0.0016
,,,-2.53600003e-007,      0.0008
,,,-2.52800003e-007,     -0.0024
,,,-2.52000003e-007,     -0.0056
,,,-2.51200003e-007,      -0.008
,,,-2.50400003e-007,     -0.0104
,,,-2.49600003e-007,     -0.0112
,,,-2.48800003e-007,     -0.0144
,,,-2.48000003e-007,     -0.0168
,,,-2.47200003e-007,     -0.0192
,,,-2.46400003e-007,     -0.0208
,,,-2.45600003e-007,     -0.0232
,,,-2.44800003e-007,     -0.0256
,,,-2.44000003e-007,     -0.0264
,,,-2.43200003e-007,     -0.0304
,,,-2.42400003e-007,     -0.0328
,,,-2.41600003e-007,     -0.0344
,,,-2.40800003e-007,     -0.0376
,,,-2.40000003e-007,     -0.0392
,,,-2.39200003e-007,       -0.04
,,,-2.38400003e-007,       -0.04
,,,-2.37600003e-007,      -0.044
,,,-2.36800003e-007,     -0.0432
,,,-2.36000003e-007,     -0.0456
,,,-2.35200003e-007,     -0.0456
,,,-2.34400003e-007,     -0.0472
,,,-2.33600003e-007,     -0.0488
,,,-2.32800003e-007,     -0.0496
,,,-2.32000003e-007,     -0.0488
,,,-2.31200003e-007,     -0.0512
,,,-2.30400003e-007,     -0.0512
,,,-2.29600003e-007,      -0.052
,,,-2.28800003e-007,      -0.052
,,,-2.28000003e-007,      -0.052
,,,-2.27200003e-007,      -0.052
,,,-2.26400003e-007,     -0.0512
,,,-2.25600003e-007,     -0.0512
,,,-2.24800003e-007,     -0.0528
,,,-2.24000003e-007,     -0.0488
,,,-2.23200003e-007,     -0.0488
,,,-2.22400003e-007,     -0.0496
,,,-2.21600003e-007,     -0.0472
,,,-2.20800003e-007,     -0.0472
,,,-2.20000003e-007,     -0.0464
,,,-2.19200003e-007,     -0.0432
,,,-2.18400003e-007,     -0.0416
,,,-2.17600003e-007,     -0.0408
,,,-2.16800003e-007,     -0.0424
,,,-2.16000003e-007,     -0.0384
,,,-2.15200003e-007,     -0.0352
,,,-2.14400003e-007,     -0.0328
,,,-2.13600003e-007,     -0.0312
,,,-2.12800003e-007,     -0.0296
,,,-2.12000003e-007,      -0.028
,,,-2.11200003e-007,      -0.028
,,,-2.10400003e-007,      -0.024
,,,-2.09600003e-007,     -0.0216
,,,-2.08800003e-007,       -0.02
,,,-2.08000003e-007,     -0.0184
,,,-2.07200003e-007,      -0.016
,,,-2.06400003e-007,      -0.012
,,,-2.05600003e-007,      -0.012
,,,-2.04800003e-007,     -0.0096
,,,-2.04000003e-007,     -0.0064
,,,-2.03200003e-007,     -0.0032
,,,-2.02400003e-007,     -0.0016
,,,-2.01600003e-007,      0.0016
,,,-2.00800003e-007,      0.0064
,,,-2.00000003e-007,       0.008
,,,-1.99200003e-007,      0.0088
,,,-1.98400003e-007,       0.012
,,,-1.97600003e-007,      0.0144
,,,-1.96800003e-007,       0.016
,,,-1.96000003e-007,      0.0176
,,,-1.95200003e-007,      0.0216
,,,-1.94400003e-007,      0.0232
,,,-1.93600003e-007,      0.0272
,,,-1.92800003e-007,       0.028
,,,-1.92000003e-007,      0.0296
,,,-1.91200003e-007,      0.0272
,,,-1.90400003e-007,      0.0336
,,,-1.89600003e-007,      0.0344
,,,-1.88800003e-007,       0.036
,,,-1.88000003e-007,       0.036
,,,-1.87200002e-007,      0.0408
,,,-1.86400002e-007,      0.0392
,,,-1.85600002e-007,      0.0408
,,,-1.84800002e-007,       0.044
,,,-1.84000002e-007,       0.044
,,,-1.83200002e-007,      0.0432
,,,-1.82400002e-007,       0.044
,,,-1.81600002e-007,      0.0456
,,,-1.80800002e-007,      0.0464
,,,-1.80000002e-007,      0.0472
,,,-1.79200002e-007,      0.0464
,,,-1.78400002e-007,       0.048
,,,-1.77600002e-007,      0.0464
,,,-1.76800002e-007,       0.048
,,,-1.76000002e-007,      0.0456
,,,-1.75200002e-007,      0.0464
,,,-1.74400002e-007,      0.0456
,,,-1.73600002e-007,       0.044
,,,-1.72800002e-007,      0.0448
,,,-1.72000002e-007,      0.0432
,,,-1.71200002e-007,      0.0432
,,,-1.70400002e-007,      0.0424
,,,-1.69600002e-007,      0.0384
,,,-1.68800002e-007,      0.0384
,,,-1.68000002e-007,      0.0368
,,,-1.67200002e-007,      0.0368
,,,-1.66400002e-007,      0.0352
,,,-1.65600002e-007,       0.032
,,,-1.64800002e-007,      0.0304
,,,-1.64000002e-007,       0.028
,,,-1.63200002e-007,      0.0272
,,,-1.62400002e-007,       0.024
,,,-1.61600002e-007,       0.024
,,,-1.60800002e-007,        0.02
,,,-1.60000002e-007,        0.02
,,,-1.59200002e-007,       0.016
,,,-1.58400002e-007,      0.0152
,,,-1.57600002e-007,      0.0128
,,,-1.56800002e-007,      0.0088
,,,-1.56000002e-007,      0.0072
,,,-1.55200002e-007,      0.0072
,,,-1.54400002e-007,      0.0008
,,,-1.53600002e-007,      0.0008
,,,-1.52800002e-007,     -0.0024
,,,-1.52000002e-007,     -0.0056
,,,-1.51200002e-007,     -0.0072
,,,-1.50400002e-007,     -0.0088
,,,-1.49600002e-007,      -0.012
,,,-1.48800002e-007,     -0.0136
,,,-1.48000002e-007,     -0.0168
,,,-1.47200002e-007,     -0.0184
,,,-1.46400002e-007,     -0.0208
,,,-1.45600002e-007,     -0.0224
,,,-1.44800002e-007,     -0.0264
,,,-1.44000002e-007,      -0.028
,,,-1.43200002e-007,     -0.0296
,,,-1.42400002e-007,      -0.032
,,,-1.41600002e-007,     -0.0352
,,,-1.40800002e-007,      -0.036
,,,-1.40000002e-007,     -0.0384
,,,-1.39200002e-007,     -0.0376
,,,-1.38400002e-007,     -0.0424
,,,-1.37600002e-007,      -0.044
,,,-1.36800002e-007,     -0.0448
,,,-1.36000002e-007,     -0.0456
,,,-1.35200002e-007,     -0.0464
,,,-1.34400002e-007,     -0.0464
,,,-1.33600002e-007,     -0.0496
,,,-1.32800002e-007,      -0.048
,,,-1.32000002e-007,     -0.0504
,,,-1.31200002e-007,     -0.0488
,,,-1.30400002e-007,     -0.0496
,,,-1.29600002e-007,      -0.052
,,,-1.28800002e-007,      -0.052
,,,-1.28000002e-007,     -0.0504
,,,-1.27200002e-007,     -0.0512
,,,-1.26400002e-007,     -0.0504
,,,-1.25600002e-007,     -0.0528
,,,-1.24800002e-007,     -0.0488
,,,-1.24000002e-007,     -0.0512
,,,-1.23200002e-007,     -0.0488
,,,-1.22400002e-007,      -0.048
,,,-1.21600002e-007,     -0.0472
,,,-1.20800002e-007,     -0.0464
,,,-1.20000002e-007,     -0.0472
,,,-1.19200002e-007,     -0.0456
,,,-1.18400002e-007,     -0.0424
,,,-1.17600002e-007,     -0.0416
,,,-1.16800002e-007,     -0.0392
,,,-1.16000002e-007,     -0.0392
,,,-1.15200002e-007,     -0.0352
,,,-1.14400002e-007,     -0.0344
,,,-1.13600002e-007,     -0.0328
,,,-1.12800002e-007,     -0.0304
,,,-1.12000001e-007,     -0.0288
,,,-1.11200001e-007,     -0.0272
,,,-1.10400001e-007,      -0.024
,,,-1.09600001e-007,      -0.024
,,,-1.08800001e-007,       -0.02
,,,-1.08000001e-007,     -0.0192
,,,-1.07200001e-007,     -0.0152
,,,-1.06400001e-007,      -0.012
,,,-1.05600001e-007,     -0.0104
,,,-1.04800001e-007,      -0.008
,,,-1.04000001e-007,     -0.0056
,,,-1.03200001e-007,     -0.0032
,,,-1.02400001e-007,      0.0008
,,,-1.01600001e-007,      0.0016
,,,-1.00800001e-007,       0.004
,,,-1.00000001e-007,      0.0072
,,,-9.92000013e-008,      0.0088
,,,-9.84000013e-008,      0.0112
,,,-9.76000013e-008,      0.0152
,,,-9.68000013e-008,      0.0144
,,,-9.60000013e-008,      0.0168
,,,-9.52000013e-008,      0.0208
,,,-9.44000013e-008,      0.0224
,,,-9.36000012e-008,      0.0248
,,,-9.28000012e-008,      0.0256
,,,-9.20000012e-008,      0.0264
,,,-9.12000012e-008,      0.0312
,,,-9.04000012e-008,      0.0336
,,,-8.96000012e-008,      0.0336
,,,-8.88000012e-008,       0.036
,,,-8.80000012e-008,      0.0368
,,,-8.72000012e-008,      0.0384
,,,-8.64000012e-008,      0.0408
,,,-8.56000011e-008,      0.0416
,,,-8.48000011e-008,      0.0416
,,,-8.40000011e-008,       0.044
,,,-8.32000011e-008,      0.0424
,,,-8.24000011e-008,      0.0432
,,,-8.16000011e-008,       0.044
,,,-8.08000011e-008,      0.0448
,,,-8.00000011e-008,      0.0488
,,,-7.92000011e-008,      0.0472
,,,-7.8400001e-008,      0.0456
,,,-7.7600001e-008,      0.0472
,,,-7.6800001e-008,       0.048
,,,-7.6000001e-008,      0.0464
,,,-7.5200001e-008,      0.0472
,,,-7.4400001e-008,       0.048
,,,-7.3600001e-008,       0.044
,,,-7.2800001e-008,      0.0448
,,,-7.2000001e-008,      0.0432
,,,-7.1200001e-008,      0.0424
,,,-7.04000009e-008,      0.0416
,,,-6.96000009e-008,        0.04
,,,-6.88000009e-008,      0.0392
,,,-6.80000009e-008,      0.0392
,,,-6.72000009e-008,      0.0352
,,,-6.64000009e-008,      0.0352
,,,-6.56000009e-008,       0.032
,,,-6.48000009e-008,      0.0304
,,,-6.40000009e-008,      0.0296
,,,-6.32000008e-008,      0.0272
,,,-6.24000008e-008,      0.0256
,,,-6.16000008e-008,       0.024
,,,-6.08000008e-008,      0.0208
,,,-6.00000008e-008,      0.0192
,,,-5.92000008e-008,      0.0176
,,,-5.84000008e-008,       0.016
,,,-5.76000008e-008,      0.0112
,,,-5.68000008e-008,      0.0112
,,,-5.60000007e-008,      0.0064
,,,-5.52000007e-008,      0.0056
,,,-5.44000007e-008,      0.0032
,,,-5.36000007e-008,     -0.0008
,,,-5.28000007e-008,     -0.0016
,,,-5.20000007e-008,     -0.0024
,,,-5.12000007e-008,     -0.0072
,,,-5.04000007e-008,     -0.0096
,,,-4.96000007e-008,     -0.0112
,,,-4.88000007e-008,     -0.0152
,,,-4.80000006e-008,     -0.0168
,,,-4.72000006e-008,     -0.0208
,,,-4.64000006e-008,     -0.0224
,,,-4.56000006e-008,     -0.0248
,,,-4.48000006e-008,     -0.0256
,,,-4.40000006e-008,     -0.0272
,,,-4.32000006e-008,     -0.0304
,,,-4.24000006e-008,      -0.032
,,,-4.16000006e-008,     -0.0336
,,,-4.08000005e-008,     -0.0352
,,,-4.00000005e-008,     -0.0392
,,,-3.92000005e-008,       -0.04
,,,-3.84000005e-008,     -0.0416
,,,-3.76000005e-008,     -0.0448
,,,-3.68000005e-008,     -0.0432
,,,-3.60000005e-008,     -0.0464
,,,-3.52000005e-008,     -0.0472
,,,-3.44000005e-008,     -0.0488
,,,-3.36000004e-008,     -0.0464
,,,-3.28000004e-008,     -0.0504
,,,-3.20000004e-008,     -0.0496
,,,-3.12000004e-008,     -0.0504
,,,-3.04000004e-008,     -0.0504
,,,-2.96000004e-008,     -0.0504
,,,-2.88000004e-008,      -0.052
,,,-2.80000004e-008,     -0.0512
,,,-2.72000004e-008,     -0.0512
,,,-2.64000004e-008,     -0.0512
,,,-2.56000003e-008,      -0.052
,,,-2.48000003e-008,     -0.0504
,,,-2.40000003e-008,     -0.0504
,,,-2.32000003e-008,     -0.0512
,,,-2.24000003e-008,     -0.0488
,,,-2.16000003e-008,     -0.0496
,,,-2.08000003e-008,     -0.0464
,,,-2.00000003e-008,     -0.0472
,,,-1.92000003e-008,      -0.044
,,,-1.84000002e-008,      -0.044
,,,-1.76000002e-008,     -0.0392
,,,-1.68000002e-008,     -0.0408
,,,-1.60000002e-008,     -0.0376
,,,-1.52000002e-008,     -0.0376
,,,-1.44000002e-008,     -0.0344
,,,-1.36000002e-008,      -0.032
,,,-1.28000002e-008,     -0.0312
,,,-1.20000002e-008,     -0.0296
,,,-1.12000001e-008,     -0.0264
,,,-1.04000001e-008,     -0.0248
,,,-9.60000013e-009,     -0.0232
,,,-8.80000012e-009,       -0.02
,,,-8.00000011e-009,     -0.0192
,,,-7.2000001e-009,     -0.0152
,,,-6.40000009e-009,     -0.0128
,,,-5.60000007e-009,     -0.0112
,,,-4.80000006e-009,     -0.0064
,,,-4.00000005e-009,     -0.0048
,,,-3.20000004e-009,     -0.0024
,,,-2.40000003e-009,           0
,,,-1.60000002e-009,      0.0024
,,,-8.00000011e-010,      0.0056
,,,           0,      0.0064
,,,8.00000011e-010,      0.0088
,,,1.60000002e-009,      0.0112
,,,2.40000003e-009,      0.0136
,,,3.20000004e-009,      0.0168
,,,4.00000005e-009,      0.0184
,,,4.80000006e-009,        0.02
,,,5.60000007e-009,      0.0216
,,,6.40000009e-009,      0.0256
,,,7.2000001e-009,      0.0264
,,,8.00000011e-009,      0.0288
,,,8.80000012e-009,      0.0296
,,,9.60000013e-009,      0.0336
,,,1.04000001e-008,      0.0328
,,,1.12000001e-008,       0.036
,,,1.20000002e-008,      0.0376
,,,1.28000002e-008,      0.0376
,,,1.36000002e-008,      0.0416
,,,1.44000002e-008,      0.0416
,,,1.52000002e-008,      0.0424
,,,1.60000002e-008,      0.0456
,,,1.68000002e-008,       0.044
,,,1.76000002e-008,      0.0456
,,,1.84000002e-008,       0.044
,,,1.92000003e-008,      0.0464
,,,2.00000003e-008,      0.0448
,,,2.08000003e-008,      0.0448
,,,2.16000003e-008,      0.0464
,,,2.24000003e-008,      0.0456
,,,2.32000003e-008,       0.048
,,,2.40000003e-008,      0.0464
,,,2.48000003e-008,      0.0432
,,,2.56000003e-008,      0.0464
,,,2.64000004e-008,      0.0456
,,,2.72000004e-008,      0.0456
,,,2.80000004e-008,      0.0448
,,,2.88000004e-008,       0.044
,,,2.96000004e-008,      0.0416
,,,3.04000004e-008,      0.0408
,,,3.12000004e-008,      0.0384
,,,3.20000004e-008,      0.0392
,,,3.28000004e-008,      0.0368
,,,3.36000004e-008,      0.0336
,,,3.44000005e-008,      0.0312
,,,3.52000005e-008,      0.0304
,,,3.60000005e-008,      0.0288
,,,3.68000005e-008,      0.0272
,,,3.76000005e-008,       0.024
,,,3.84000005e-008,      0.0232
,,,3.92000005e-008,      0.0208
,,,4.00000005e-008,      0.0176
,,,4.08000005e-008,      0.0184
,,,4.16000006e-008,      0.0144
,,,4.24000006e-008,      0.0104
,,,4.32000006e-008,      0.0088
,,,4.40000006e-008,      0.0064
,,,4.48000006e-008,      0.0032
,,,4.56000006e-008,      0.0008
,,,4.64000006e-008,           0
,,,4.72000006e-008,     -0.0024
,,,4.80000006e-008,     -0.0056
,,,4.88000007e-008,     -0.0072
,,,4.96000007e-008,     -0.0096
,,,5.04000007e-008,     -0.0136
,,,5.12000007e-008,     -0.0168
,,,5.20000007e-008,     -0.0168
,,,5.28000007e-008,     -0.0192
,,,5.36000007e-008,     -0.0224
,,,5.44000007e-008,     -0.0248
,,,5.52000007e-008,     -0.0272
,,,5.60000007e-008,     -0.0272
,,,5.68000008e-008,     -0.0288
,,,5.76000008e-008,     -0.0328
,,,5.84000008e-008,     -0.0344
,,,5.92000008e-008,     -0.0384
,,,6.00000008e-008,     -0.0384
,,,6.08000008e-008,     -0.0368
,,,6.16000008e-008,     -0.0424
,,,6.24000008e-008,     -0.0416
,,,6.32000008e-008,     -0.0424
,,,6.40000009e-008,     -0.0456
,,,6.48000009e-008,     -0.0472
,,,6.56000009e-008,     -0.0472
,,,6.64000009e-008,     -0.0504
,,,6.72000009e-008,     -0.0488
,,,6.80000009e-008,     -0.0504
,,,6.88000009e-008,     -0.0512
,,,6.96000009e-008,      -0.052
,,,7.04000009e-008,     -0.0512
,,,7.1200001e-008,     -0.0512
,,,7.2000001e-008,     -0.0512
,,,7.2800001e-008,     -0.0528
,,,7.3600001e-008,     -0.0504
,,,7.4400001e-008,     -0.0528
,,,7.5200001e-008,     -0.0488
,,,7.6000001e-008,     -0.0512
,,,7.6800001e-008,     -0.0504
,,,7.7600001e-008,     -0.0488
,,,7.8400001e-008,      -0.048
,,,7.92000011e-008,      -0.048
,,,8.00000011e-008,     -0.0472
,,,8.08000011e-008,     -0.0448
,,,8.16000011e-008,     -0.0448
,,,8.24000011e-008,     -0.0424
,,,8.32000011e-008,     -0.0376
,,,8.40000011e-008,     -0.0392
,,,8.48000011e-008,     -0.0368
,,,8.56000011e-008,      -0.036
,,,8.64000012e-008,     -0.0336
,,,8.72000012e-008,     -0.0296
,,,8.80000012e-008,     -0.0264
,,,8.88000012e-008,     -0.0256
,,,8.96000012e-008,      -0.024
,,,9.04000012e-008,     -0.0208
,,,9.12000012e-008,     -0.0208
,,,9.20000012e-008,     -0.0176
,,,9.28000012e-008,     -0.0168
,,,9.36000012e-008,      -0.012
,,,9.44000013e-008,     -0.0088
,,,9.52000013e-008,     -0.0088
,,,9.60000013e-008,      -0.004
