GUI_pyQt/FPGA Testing/Power Levels/FPGA_output_test_data/gated_RF_test_data/RF_10MHz_20_10_20_10_20us_pulses.csv

"Record Length",2500,"Points",-1.99999999e-006,      -0.004
"Sample Interval",3.99999998e-008,s,-1.95999999e-006,           0
"Trigger Point",50,"Samples",-1.91999999e-006,      -0.004
"Trigger Time",1.60724998e-009,s,-1.87999999e-006,           0
"",,,-1.83999999e-006,      -0.004
"Horizontal Offset",-1.99999999e-006,s,-1.79999999e-006,      -0.004
,,,-1.75999999e-006,           0
,,,-1.71999999e-006,      -0.008
,,,-1.67999999e-006,      -0.008
,,,-1.63999999e-006,      -0.012
,,,-1.59999999e-006,           0
,,,-1.55999999e-006,      -0.016
,,,-1.51999999e-006,      -0.004
,,,-1.47999999e-006,      -0.008
,,,-1.43999999e-006,      -0.004
,,,-1.39999999e-006,      -0.004
,,,-1.35999999e-006,      -0.004
,,,-1.31999999e-006,      -0.004
,,,-1.27999999e-006,      -0.004
,,,-1.23999999e-006,       0.012
,,,-1.19999999e-006,      -0.004
,,,-1.15999999e-006,           0
,,,-1.11999999e-006,      -0.004
,,,-1.07999999e-006,      -0.004
,,,-1.03999999e-006,           0
,,,-9.99999994e-007,      -0.004
,,,-9.59999994e-007,           0
,,,-9.19999994e-007,       0.004
,,,-8.79999995e-007,      -0.008
,,,-8.39999995e-007,      -0.004
,,,-7.99999995e-007,           0
,,,-7.59999995e-007,      -0.008
,,,-7.19999996e-007,      -0.008
,,,-6.79999996e-007,      -0.004
,,,-6.39999996e-007,      -0.004
,,,-5.99999996e-007,      -0.008
,,,-5.59999997e-007,      -0.004
,,,-5.19999997e-007,      -0.012
,,,-4.79999997e-007,      -0.008
,,,-4.39999997e-007,           0
,,,-3.99999998e-007,      -0.008
,,,-3.59999998e-007,      -0.004
,,,-3.19999998e-007,           0
,,,-2.79999998e-007,      -0.004
,,,-2.39999999e-007,      -0.004
,,,-1.99999999e-007,      -0.004
,,,-1.59999999e-007,      -0.008
,,,-1.19999999e-007,      -0.004
,,,-7.99999995e-008,      -0.128
,,,-3.99999998e-008,       0.076
,,,           0,       0.008
,,,3.99999998e-008,      -0.076
,,,7.99999995e-008,       0.124
,,,1.19999999e-007,      -0.128
,,,1.59999999e-007,       0.072
,,,1.99999999e-007,      -0.004
,,,2.39999999e-007,      -0.088
,,,2.79999998e-007,       0.116
,,,3.19999998e-007,      -0.128
,,,3.59999998e-007,       0.068
,,,3.99999998e-007,           0
,,,4.39999997e-007,      -0.088
,,,4.79999997e-007,       0.116
,,,5.19999997e-007,      -0.128
,,,5.59999997e-007,       0.068
,,,5.99999996e-007,           0
,,,6.39999996e-007,      -0.084
,,,6.79999996e-007,        0.12
,,,7.19999996e-007,      -0.124
,,,7.59999995e-007,       0.076
,,,7.99999995e-007,      -0.004
,,,8.39999995e-007,      -0.092
,,,8.79999995e-007,       0.124
,,,9.19999994e-007,      -0.124
,,,9.59999994e-007,       0.068
,,,9.99999994e-007,       0.004
,,,1.03999999e-006,      -0.088
,,,1.07999999e-006,       0.128
,,,1.11999999e-006,      -0.128
,,,1.15999999e-006,       0.084
,,,1.19999999e-006,           0
,,,1.23999999e-006,      -0.092
,,,1.27999999e-006,       0.124
,,,1.31999999e-006,      -0.128
,,,1.35999999e-006,       0.076
,,,1.39999999e-006,           0
,,,1.43999999e-006,      -0.084
,,,1.47999999e-006,       0.128
,,,1.51999999e-006,      -0.128
,,,1.55999999e-006,       0.076
,,,1.59999999e-006,      -0.004
,,,1.63999999e-006,      -0.084
,,,1.67999999e-006,       0.124
,,,1.71999999e-006,      -0.124
,,,1.75999999e-006,       0.072
,,,1.79999999e-006,      -0.004
,,,1.83999999e-006,      -0.084
,,,1.87999999e-006,       0.116
,,,1.91999999e-006,      -0.128
,,,1.95999999e-006,       0.068
,,,1.99999999e-006,           0
,,,2.03999999e-006,      -0.076
,,,2.07999999e-006,        0.12
,,,2.11999999e-006,      -0.124
,,,2.15999999e-006,       0.084
,,,2.19999999e-006,           0
,,,2.23999999e-006,      -0.072
,,,2.27999999e-006,       0.128
,,,2.31999999e-006,       -0.12
,,,2.35999999e-006,       0.076
,,,2.39999999e-006,           0
,,,2.43999999e-006,      -0.072
,,,2.47999998e-006,        0.12
,,,2.51999998e-006,      -0.136
,,,2.55999998e-006,        0.08
,,,2.59999998e-006,      -0.004
,,,2.63999998e-006,       -0.08
,,,2.67999998e-006,        0.12
,,,2.71999998e-006,      -0.132
,,,2.75999998e-006,        0.08
,,,2.79999998e-006,       0.004
,,,2.83999998e-006,      -0.084
,,,2.87999998e-006,       0.116
,,,2.91999998e-006,      -0.136
,,,2.95999998e-006,        0.08
,,,2.99999998e-006,      -0.012
,,,3.03999998e-006,       -0.08
,,,3.07999998e-006,       0.128
,,,3.11999998e-006,      -0.136
,,,3.15999998e-006,       0.072
,,,3.19999998e-006,      -0.008
,,,3.23999998e-006,       -0.08
,,,3.27999998e-006,       0.124
,,,3.31999998e-006,      -0.136
,,,3.35999998e-006,       0.072
,,,3.39999998e-006,           0
,,,3.43999998e-006,       -0.08
,,,3.47999998e-006,       0.128
,,,3.51999998e-006,      -0.128
,,,3.55999998e-006,       0.076
,,,3.59999998e-006,      -0.004
,,,3.63999998e-006,      -0.084
,,,3.67999998e-006,       0.132
,,,3.71999998e-006,      -0.124
,,,3.75999998e-006,       0.068
,,,3.79999998e-006,           0
,,,3.83999998e-006,      -0.084
,,,3.87999998e-006,       0.124
,,,3.91999998e-006,      -0.132
,,,3.95999998e-006,       0.068
,,,3.99999998e-006,           0
,,,4.03999998e-006,      -0.076
,,,4.07999998e-006,       0.128
,,,4.11999997e-006,      -0.128
,,,4.15999997e-006,       0.068
,,,4.19999997e-006,       0.008
,,,4.23999997e-006,      -0.084
,,,4.27999997e-006,        0.12
,,,4.31999997e-006,      -0.128
,,,4.35999997e-006,       0.068
,,,4.39999997e-006,      -0.008
,,,4.43999997e-006,      -0.092
,,,4.47999997e-006,       0.128
,,,4.51999997e-006,      -0.124
,,,4.55999997e-006,       0.072
,,,4.59999997e-006,       0.008
,,,4.63999997e-006,      -0.088
,,,4.67999997e-006,       0.128
,,,4.71999997e-006,      -0.128
,,,4.75999997e-006,       0.072
,,,4.79999997e-006,      -0.004
,,,4.83999997e-006,      -0.076
,,,4.87999997e-006,       0.124
,,,4.91999997e-006,      -0.132
,,,4.95999997e-006,        0.08
,,,4.99999997e-006,      -0.008
,,,5.03999997e-006,      -0.088
,,,5.07999997e-006,        0.12
,,,5.11999997e-006,      -0.124
,,,5.15999997e-006,        0.08
,,,5.19999997e-006,      -0.008
,,,5.23999997e-006,      -0.088
,,,5.27999997e-006,       0.116
,,,5.31999997e-006,      -0.128
,,,5.35999997e-006,       0.068
,,,5.39999997e-006,      -0.004
,,,5.43999997e-006,      -0.092
,,,5.47999997e-006,        0.12
,,,5.51999997e-006,      -0.128
,,,5.55999997e-006,       0.068
,,,5.59999997e-006,      -0.008
,,,5.63999997e-006,       -0.08
,,,5.67999997e-006,       0.128
,,,5.71999997e-006,      -0.136
,,,5.75999996e-006,       0.072
,,,5.79999996e-006,       0.004
,,,5.83999996e-006,      -0.088
,,,5.87999996e-006,        0.12
,,,5.91999996e-006,      -0.128
,,,5.95999996e-006,       0.072
,,,5.99999996e-006,      -0.004
,,,6.03999996e-006,       -0.08
,,,6.07999996e-006,        0.12
,,,6.11999996e-006,      -0.144
,,,6.15999996e-006,       0.068
,,,6.19999996e-006,      -0.008
,,,6.23999996e-006,       -0.08
,,,6.27999996e-006,       0.124
,,,6.31999996e-006,      -0.136
,,,6.35999996e-006,       0.072
,,,6.39999996e-006,           0
,,,6.43999996e-006,      -0.088
,,,6.47999996e-006,       0.116
,,,6.51999996e-006,       -0.12
,,,6.55999996e-006,       0.072
,,,6.59999996e-006,      -0.004
,,,6.63999996e-006,       -0.08
,,,6.67999996e-006,        0.12
,,,6.71999996e-006,      -0.128
,,,6.75999996e-006,       0.076
,,,6.79999996e-006,      -0.004
,,,6.83999996e-006,      -0.084
,,,6.87999996e-006,       0.124
,,,6.91999996e-006,      -0.124
,,,6.95999996e-006,       0.076
,,,6.99999996e-006,       0.004
,,,7.03999996e-006,      -0.088
,,,7.07999996e-006,       0.128
,,,7.11999996e-006,      -0.132
,,,7.15999996e-006,       0.068
,,,7.19999996e-006,           0
,,,7.23999996e-006,      -0.084
,,,7.27999996e-006,        0.12
,,,7.31999996e-006,      -0.116
,,,7.35999996e-006,       0.076
,,,7.39999996e-006,       0.004
,,,7.43999995e-006,      -0.088
,,,7.47999995e-006,       0.124
,,,7.51999995e-006,      -0.124
,,,7.55999995e-006,       0.068
,,,7.59999995e-006,      -0.008
,,,7.63999995e-006,      -0.088
,,,7.67999995e-006,       0.124
,,,7.71999995e-006,      -0.132
,,,7.75999995e-006,        0.08
,,,7.79999995e-006,      -0.004
,,,7.83999995e-006,       -0.08
,,,7.87999995e-006,       0.124
,,,7.91999995e-006,      -0.128
,,,7.95999995e-006,        0.08
,,,7.99999995e-006,      -0.008
,,,8.03999995e-006,      -0.084
,,,8.07999995e-006,       0.124
,,,8.11999995e-006,      -0.128
,,,8.15999995e-006,       0.072
,,,8.19999995e-006,           0
,,,8.23999995e-006,      -0.088
,,,8.27999995e-006,        0.12
,,,8.31999995e-006,      -0.128
,,,8.35999995e-006,       0.072
,,,8.39999995e-006,      -0.008
,,,8.43999995e-006,      -0.076
,,,8.47999995e-006,       0.124
,,,8.51999995e-006,      -0.124
,,,8.55999995e-006,       0.072
,,,8.59999995e-006,           0
,,,8.63999995e-006,      -0.088
,,,8.67999995e-006,       0.124
,,,8.71999995e-006,      -0.116
,,,8.75999995e-006,       0.072
,,,8.79999995e-006,      -0.004
,,,8.83999995e-006,       -0.08
,,,8.87999995e-006,        0.12
,,,8.91999995e-006,      -0.132
,,,8.95999995e-006,       0.084
,,,8.99999995e-006,       0.004
,,,9.03999995e-006,       -0.08
,,,9.07999994e-006,       0.124
,,,9.11999994e-006,      -0.132
,,,9.15999994e-006,       0.072
,,,9.19999994e-006,      -0.004
,,,9.23999994e-006,      -0.084
,,,9.27999994e-006,       0.116
,,,9.31999994e-006,      -0.124
,,,9.35999994e-006,       0.072
,,,9.39999994e-006,      -0.004
,,,9.43999994e-006,      -0.092
,,,9.47999994e-006,       0.124
,,,9.51999994e-006,       -0.12
,,,9.55999994e-006,       0.072
,,,9.59999994e-006,      -0.004
,,,9.63999994e-006,      -0.088
,,,9.67999994e-006,        0.12
,,,9.71999994e-006,       -0.14
,,,9.75999994e-006,       0.072
,,,9.79999994e-006,           0
,,,9.83999994e-006,      -0.084
,,,9.87999994e-006,        0.12
,,,9.91999994e-006,      -0.128
,,,9.95999994e-006,       0.072
,,,9.99999994e-006,      -0.004
,,,1.00399999e-005,       -0.08
,,,1.00799999e-005,       0.128
,,,1.01199999e-005,      -0.132
,,,1.01599999e-005,       0.084
,,,1.01999999e-005,           0
,,,1.02399999e-005,       -0.08
,,,1.02799999e-005,       0.128
,,,1.03199999e-005,      -0.124
,,,1.03599999e-005,       0.068
,,,1.03999999e-005,      -0.004
,,,1.04399999e-005,      -0.084
,,,1.04799999e-005,       0.124
,,,1.05199999e-005,      -0.132
,,,1.05599999e-005,       0.072
,,,1.05999999e-005,      -0.008
,,,1.06399999e-005,      -0.088
,,,1.06799999e-005,       0.124
,,,1.07199999e-005,      -0.128
,,,1.07599999e-005,        0.08
,,,1.07999999e-005,       0.004
,,,1.08399999e-005,      -0.092
,,,1.08799999e-005,        0.12
,,,1.09199999e-005,      -0.116
,,,1.09599999e-005,       0.076
,,,1.09999999e-005,      -0.004
,,,1.10399999e-005,      -0.088
,,,1.10799999e-005,       0.112
,,,1.11199999e-005,      -0.132
,,,1.11599999e-005,       0.072
,,,1.11999999e-005,      -0.004
,,,1.12399999e-005,      -0.084
,,,1.12799999e-005,       0.128
,,,1.13199999e-005,      -0.128
,,,1.13599999e-005,       0.084
,,,1.13999999e-005,      -0.004
,,,1.14399999e-005,      -0.076
,,,1.14799999e-005,       0.124
,,,1.15199999e-005,      -0.128
,,,1.15599999e-005,       0.072
,,,1.15999999e-005,           0
,,,1.16399999e-005,      -0.088
,,,1.16799999e-005,       0.116
,,,1.17199999e-005,      -0.128
,,,1.17599999e-005,       0.068
,,,1.17999999e-005,           0
,,,1.18399999e-005,       -0.08
,,,1.18799999e-005,        0.12
,,,1.19199999e-005,      -0.136
,,,1.19599999e-005,        0.08
,,,1.19999999e-005,      -0.004
,,,1.20399999e-005,       -0.08
,,,1.20799999e-005,       0.124
,,,1.21199999e-005,      -0.124
,,,1.21599999e-005,       0.072
,,,1.21999999e-005,       0.004
,,,1.22399999e-005,      -0.084
,,,1.22799999e-005,       0.124
,,,1.23199999e-005,      -0.132
,,,1.23599999e-005,       0.076
,,,1.23999999e-005,       0.004
,,,1.24399999e-005,      -0.084
,,,1.24799999e-005,        0.12
,,,1.25199999e-005,      -0.128
,,,1.25599999e-005,       0.076
,,,1.25999999e-005,      -0.004
,,,1.26399999e-005,      -0.084
,,,1.26799999e-005,       0.124
,,,1.27199999e-005,      -0.128
,,,1.27599999e-005,       0.068
,,,1.27999999e-005,      -0.004
,,,1.28399999e-005,      -0.088
,,,1.28799999e-005,        0.12
,,,1.29199999e-005,      -0.124
,,,1.29599999e-005,       0.068
,,,1.29999999e-005,      -0.004
,,,1.30399999e-005,      -0.096
,,,1.30799999e-005,        0.12
,,,1.31199999e-005,      -0.128
,,,1.31599999e-005,       0.068
,,,1.31999999e-005,           0
,,,1.32399999e-005,      -0.088
,,,1.32799999e-005,       0.116
,,,1.33199999e-005,      -0.132
,,,1.33599999e-005,       0.076
,,,1.33999999e-005,      -0.004
,,,1.34399999e-005,      -0.092
,,,1.34799999e-005,       0.124
,,,1.35199999e-005,      -0.128
,,,1.35599999e-005,       0.072
,,,1.35999999e-005,      -0.004
,,,1.36399999e-005,       -0.08
,,,1.36799999e-005,       0.116
,,,1.37199999e-005,      -0.132
,,,1.37599999e-005,       0.068
,,,1.37999999e-005,       0.012
,,,1.38399999e-005,      -0.072
,,,1.38799999e-005,       0.124
,,,1.39199999e-005,      -0.128
,,,1.39599999e-005,       0.068
,,,1.39999999e-005,      -0.004
,,,1.40399999e-005,       -0.08
,,,1.40799999e-005,       0.116
,,,1.41199999e-005,      -0.128
,,,1.41599999e-005,       0.068
,,,1.41999999e-005,           0
,,,1.42399999e-005,       -0.08
,,,1.42799999e-005,       0.116
,,,1.43199999e-005,      -0.128
,,,1.43599999e-005,       0.072
,,,1.43999999e-005,           0
,,,1.44399999e-005,      -0.088
,,,1.44799999e-005,        0.12
,,,1.45199999e-005,      -0.136
,,,1.45599999e-005,       0.068
,,,1.45999999e-005,      -0.004
,,,1.46399999e-005,       -0.08
,,,1.46799999e-005,        0.12
,,,1.47199999e-005,      -0.128
,,,1.47599999e-005,       0.076
,,,1.47999999e-005,      -0.004
,,,1.48399999e-005,      -0.084
,,,1.48799999e-005,        0.12
,,,1.49199999e-005,      -0.128
,,,1.49599999e-005,       0.068
,,,1.49999999e-005,       0.004
,,,1.50399999e-005,       -0.08
,,,1.50799999e-005,       0.128
,,,1.51199999e-005,      -0.128
,,,1.51599999e-005,       0.072
,,,1.51999999e-005,      -0.012
,,,1.52399999e-005,       -0.08
,,,1.52799999e-005,       0.124
,,,1.53199999e-005,      -0.128
,,,1.53599999e-005,       0.072
,,,1.53999999e-005,           0
,,,1.54399999e-005,      -0.088
,,,1.54799999e-005,        0.12
,,,1.55199999e-005,      -0.124
,,,1.55599999e-005,       0.072
,,,1.55999999e-005,      -0.008
,,,1.56399999e-005,       -0.08
,,,1.56799999e-005,       0.124
,,,1.57199999e-005,      -0.128
,,,1.57599999e-005,       0.072
,,,1.57999999e-005,      -0.004
,,,1.58399999e-005,      -0.092
,,,1.58799999e-005,       0.124
,,,1.59199999e-005,      -0.132
,,,1.59599999e-005,       0.076
,,,1.59999999e-005,       0.008
,,,1.60399999e-005,      -0.084
,,,1.60799999e-005,       0.124
,,,1.61199999e-005,      -0.136
,,,1.61599999e-005,       0.072
,,,1.61999999e-005,      -0.004
,,,1.62399999e-005,       -0.08
,,,1.62799999e-005,        0.12
,,,1.63199999e-005,      -0.128
,,,1.63599999e-005,       0.084
,,,1.63999999e-005,      -0.004
,,,1.64399999e-005,       -0.08
,,,1.64799999e-005,       0.124
,,,1.65199999e-005,      -0.136
,,,1.65599999e-005,        0.08
,,,1.65999999e-005,       0.004
,,,1.66399999e-005,      -0.088
,,,1.66799999e-005,       0.132
,,,1.67199999e-005,      -0.132
,,,1.67599999e-005,       0.064
,,,1.67999999e-005,      -0.004
,,,1.68399999e-005,      -0.088
,,,1.68799999e-005,        0.12
,,,1.69199999e-005,      -0.124
,,,1.69599999e-005,       0.064
,,,1.69999999e-005,      -0.004
,,,1.70399999e-005,      -0.084
,,,1.70799999e-005,        0.12
,,,1.71199999e-005,      -0.128
,,,1.71599999e-005,       0.068
,,,1.71999999e-005,      -0.004
,,,1.72399999e-005,      -0.088
,,,1.72799999e-005,        0.12
,,,1.73199999e-005,       -0.12
,,,1.73599999e-005,       0.072
,,,1.73999999e-005,      -0.004
,,,1.74399999e-005,      -0.084
,,,1.74799999e-005,        0.12
,,,1.75199999e-005,       -0.12
,,,1.75599999e-005,        0.06
,,,1.75999999e-005,      -0.004
,,,1.76399999e-005,      -0.072
,,,1.76799999e-005,        0.12
,,,1.77199999e-005,      -0.132
,,,1.77599999e-005,       0.064
,,,1.77999999e-005,           0
,,,1.78399999e-005,      -0.072
,,,1.78799999e-005,       0.128
,,,1.79199999e-005,      -0.128
,,,1.79599999e-005,       0.068
,,,1.79999999e-005,      -0.004
,,,1.80399999e-005,      -0.092
,,,1.80799999e-005,       0.112
,,,1.81199999e-005,      -0.132
,,,1.81599999e-005,       0.072
,,,1.81999999e-005,           0
,,,1.82399999e-005,        -0.1
,,,1.82799999e-005,        0.12
,,,1.83199999e-005,      -0.124
,,,1.83599999e-005,       0.068
,,,1.83999999e-005,       0.004
,,,1.84399999e-005,       -0.08
,,,1.84799999e-005,       0.112
,,,1.85199999e-005,      -0.132
,,,1.85599999e-005,        0.08
,,,1.85999999e-005,           0
,,,1.86399999e-005,      -0.088
,,,1.86799999e-005,       0.116
,,,1.87199999e-005,      -0.124
,,,1.87599999e-005,       0.076
,,,1.87999999e-005,      -0.004
,,,1.88399999e-005,       -0.08
,,,1.88799999e-005,       0.124
,,,1.89199999e-005,      -0.132
,,,1.89599999e-005,       0.072
,,,1.89999999e-005,      -0.004
,,,1.90399999e-005,      -0.084
,,,1.90799999e-005,       0.124
,,,1.91199999e-005,      -0.136
,,,1.91599999e-005,       0.076
,,,1.91999999e-005,      -0.008
,,,1.92399999e-005,      -0.096
,,,1.92799999e-005,       0.128
,,,1.93199999e-005,      -0.124
,,,1.93599999e-005,       0.064
,,,1.93999999e-005,      -0.004
,,,1.94399999e-005,      -0.088
,,,1.94799999e-005,       0.116
,,,1.95199999e-005,      -0.132
,,,1.95599999e-005,       0.068
,,,1.95999999e-005,      -0.004
,,,1.96399999e-005,      -0.084
,,,1.96799999e-005,       0.124
,,,1.97199999e-005,      -0.124
,,,1.97599999e-005,       0.072
,,,1.97999999e-005,      -0.008
,,,1.98399999e-005,       -0.08
,,,1.98799999e-005,       0.124
,,,1.99199999e-005,      -0.028
,,,1.99599999e-005,       -0.02
,,,1.99999999e-005,      -0.016
,,,2.00399999e-005,      -0.012
,,,2.00799999e-005,      -0.004
,,,2.01199999e-005,      -0.012
,,,2.01599999e-005,      -0.008
,,,2.01999999e-005,           0
,,,2.02399999e-005,       0.008
,,,2.02799999e-005,      -0.008
,,,2.03199999e-005,           0
,,,2.03599999e-005,           0
,,,2.03999999e-005,      -0.004
,,,2.04399999e-005,           0
,,,2.04799999e-005,      -0.004
,,,2.05199999e-005,           0
,,,2.05599999e-005,      -0.008
,,,2.05999999e-005,       0.004
,,,2.06399999e-005,      -0.004
,,,2.06799999e-005,      -0.004
,,,2.07199999e-005,      -0.008
,,,2.07599999e-005,      -0.008
,,,2.07999999e-005,       0.004
,,,2.08399999e-005,      -0.004
,,,2.08799999e-005,      -0.012
,,,2.09199999e-005,      -0.004
,,,2.09599999e-005,      -0.004
,,,2.09999999e-005,      -0.008
,,,2.10399999e-005,           0
,,,2.10799999e-005,           0
,,,2.11199999e-005,      -0.008
,,,2.11599999e-005,      -0.004
,,,2.11999999e-005,      -0.012
,,,2.12399999e-005,      -0.004
,,,2.12799999e-005,      -0.012
,,,2.13199999e-005,      -0.008
,,,2.13599999e-005,      -0.008
,,,2.13999999e-005,       0.004
,,,2.14399999e-005,           0
,,,2.14799999e-005,           0
,,,2.15199999e-005,      -0.004
,,,2.15599999e-005,       0.004
,,,2.15999999e-005,      -0.004
,,,2.16399999e-005,      -0.012
,,,2.16799999e-005,      -0.004
,,,2.17199999e-005,           0
,,,2.17599999e-005,      -0.008
,,,2.17999999e-005,       0.004
,,,2.18399999e-005,      -0.004
,,,2.18799999e-005,      -0.012
,,,2.19199999e-005,           0
,,,2.19599999e-005,      -0.008
,,,2.19999999e-005,      -0.004
,,,2.20399999e-005,      -0.004
,,,2.20799999e-005,      -0.008
,,,2.21199999e-005,      -0.004
,,,2.21599999e-005,      -0.004
,,,2.21999999e-005,      -0.012
,,,2.22399999e-005,      -0.008
,,,2.22799999e-005,      -0.004
,,,2.23199999e-005,      -0.004
,,,2.23599999e-005,      -0.008
,,,2.23999999e-005,      -0.004
,,,2.24399999e-005,       0.004
,,,2.24799999e-005,       0.004
,,,2.25199999e-005,           0
,,,2.25599999e-005,      -0.008
,,,2.25999999e-005,      -0.004
,,,2.26399999e-005,      -0.012
,,,2.26799999e-005,      -0.016
